<?xml version="1.0" encoding="UTF-8" standalone="no"?>
<!DOCTYPE svg PUBLIC "-//W3C//DTD SVG 20010904//EN"
"http://www.w3.org/TR/2001/REC-SVG-20010904/DTD/svg10.dtd">
<!-- Created with Inkscape (http://www.inkscape.org/) -->
<svg
   id="svg964"
   sodipodi:version="0.32"
   inkscape:version="0.38.1"
   width="48.000000pt"
   height="48.000000pt"
   sodipodi:docbase="/home/krosstok/Desktop"
   sodipodi:docname="gnome-fs-desktopconfig.svg"
   xmlns="http://www.w3.org/2000/svg"
   xmlns:inkscape="http://www.inkscape.org/namespaces/inkscape"
   xmlns:sodipodi="http://sodipodi.sourceforge.net/DTD/sodipodi-0.dtd"
   xmlns:xlink="http://www.w3.org/1999/xlink">
  <defs
     id="defs966">
    <linearGradient
       id="linearGradient903">
      <stop
         style="stop-color:#f7f9f7;stop-opacity:1.0000000;"
         offset="0.0000000"
         id="stop904" />
      <stop
         style="stop-color:#e3e1e1;stop-opacity:1.0000000;"
         offset="1.0000000"
         id="stop905" />
    </linearGradient>
    <linearGradient
       id="linearGradient1021">
      <stop
         style="stop-color:#ccb37f;stop-opacity:1.0000000;"
         offset="0.0000000"
         id="stop1022" />
      <stop
         style="stop-color:#ffffff;stop-opacity:0.0000000;"
         offset="1.0000000"
         id="stop1023" />
    </linearGradient>
    <linearGradient
       xlink:href="#linearGradient1021"
       id="linearGradient1024"
       x1="46.121464"
       y1="41.514206"
       x2="-5.8125281"
       y2="78.944130"
       gradientUnits="userSpaceOnUse"
       gradientTransform="scale(1.176975,0.849636)" />
    <linearGradient
       xlink:href="#linearGradient903"
       id="linearGradient902"
       x1="47.543087"
       y1="25.098555"
       x2="28.666546"
       y2="37.252953"
       gradientUnits="userSpaceOnUse"
       gradientTransform="scale(0.895726,1.116412)" />
    <linearGradient
       xlink:href="#linearGradient1021"
       id="linearGradient924"
       x1="0.76282054"
       y1="0.73595506"
       x2="-0.15384616"
       y2="0.14606741" />
    <linearGradient
       xlink:href="#linearGradient903"
       id="linearGradient925"
       x1="-0.28000000"
       y1="0.25842696"
       x2="-0.10000000"
       y2="0.55617976" />
  </defs>
  <sodipodi:namedview
     id="base"
     pagecolor="#ffffff"
     bordercolor="#666666"
     borderopacity="1.0"
     inkscape:pageopacity="0.0"
     inkscape:pageshadow="2"
     inkscape:zoom="1.3018359"
     inkscape:cx="30.420320"
     inkscape:cy="36.482257"
     inkscape:window-width="801"
     inkscape:window-height="499"
     inkscape:window-x="194"
     inkscape:window-y="98"
     showguides="true"
     snaptoguides="true" />
  <rect
     style="fill-opacity:0.46399996;fill-rule:evenodd;stroke-width:1.6875000;"
     id="rect1049"
     width="65.448024"
     height="47.541952"
     x="4.0776046"
     y="16.235597"
     ry="0.96124626"
     transform="matrix(0.869117,0.000000,0.000000,0.876026,-1.084562,-3.635432)" />
  <rect
     style="fill:#b39966;fill-rule:evenodd;stroke:#000000;stroke-width:2.2185702;"
     id="rect967"
     width="64.312653"
     height="46.996914"
     x="3.1717825"
     y="21.125568"
     ry="0.95022625"
     transform="matrix(0.844847,0.000000,0.000000,0.826778,-0.216632,-6.878773)" />
  <path
     sodipodi:type="inkscape:offset"
     inkscape:radius="-1.4438632"
     inkscape:original="M 4.1250000 21.312500 C 3.5985746 21.312500 3.1562500 21.754825 3.1562500 22.281250 L 3.1562500 67.375000 C 3.1562500 67.901427 3.5985747 68.312500 4.1250000 68.312500 L 66.187500 68.312500 C 66.713923 68.312502 67.156250 67.901425 67.156250 67.375000 L 67.156250 22.281250 C 67.156248 21.754825 66.713925 21.312500 66.187500 21.312500 L 4.1250000 21.312500 z "
     style="fill:url(#linearGradient1024);fill-rule:evenodd;stroke-width:1.1875000;"
     id="path969"
     d="M 4.5937500,22.750000 L 4.5937500,66.875000 L 65.718750,66.875000 L 65.718750,22.750000 L 4.5937500,22.750000 z "
     transform="matrix(0.812003,0.000000,0.000000,0.814056,2.228688,-7.311901)" />
  <path
     style="fill:#616485;fill-rule:evenodd;stroke:#000000;stroke-width:1.1353860;"
     d="M 1.8676799,20.040062 C 1.7639720,20.040062 1.6804813,20.139242 1.6804813,20.262437 L 1.6804813,30.815990 C 1.6804813,30.939185 1.7639720,31.038363 1.8676799,31.038363 L 14.285185,20.262437 C 14.285185,20.139242 14.201695,20.040062 14.097987,20.040062 L 1.8676799,20.040062 z "
     id="path977"
     sodipodi:nodetypes="ccccccc"
     transform="matrix(0.844847,0.000000,0.000000,0.826778,-0.216632,-6.878773)" />
  <path
     style="fill:#616485;fill-rule:evenodd;stroke:#000000;stroke-width:1.0962348;"
     d="M 2.5292838,69.122252 C 2.4280689,69.122252 2.3465852,69.033237 2.3465852,68.922668 L 2.3465852,59.450764 C 2.3465852,59.340194 2.4280689,59.251183 2.5292838,59.251183 L 14.648291,68.922668 C 14.648291,69.033237 14.566809,69.122252 14.465593,69.122252 L 2.5292838,69.122252 z "
     id="path984"
     sodipodi:nodetypes="ccccccc"
     transform="matrix(0.844847,0.000000,0.000000,0.826778,-0.216632,-6.878773)" />
  <path
     style="fill:#616485;fill-rule:evenodd;stroke:#000000;stroke-width:1.1484364;"
     d="M 68.145491,19.857044 C 68.254235,19.857044 68.341780,19.959397 68.341780,20.086533 L 68.341780,30.977685 C 68.341780,31.104821 68.254235,31.207171 68.145491,31.207171 L 55.125076,20.086533 C 55.125076,19.959397 55.212619,19.857044 55.321362,19.857044 L 68.145491,19.857044 z "
     id="path995"
     sodipodi:nodetypes="ccccccc"
     transform="matrix(0.844847,0.000000,0.000000,0.826778,-0.216632,-6.878773)" />
  <path
     style="fill:#616485;fill-rule:evenodd;stroke:#000000;stroke-width:1.1353860;"
     d="M 67.791468,69.318151 C 67.903257,69.318151 67.993253,69.226100 67.993253,69.111758 L 67.993253,59.316669 C 67.993253,59.202328 67.903257,59.110278 67.791468,59.110278 L 54.406387,69.111758 C 54.406387,69.226100 54.496382,69.318151 54.608171,69.318151 L 67.791468,69.318151 z "
     id="path998"
     sodipodi:nodetypes="ccccccc"
     transform="matrix(0.844847,0.000000,0.000000,0.826778,-0.216632,-6.878773)" />
  <path
     style="fill:#767a9b;fill-rule:evenodd;stroke-width:0.47684827;"
     d="M 4.0968421,15.818041 C 4.0206621,15.818041 3.9593329,15.882332 3.9593329,15.962189 L 3.9593329,22.803189 C 3.9593329,22.883046 4.0206621,22.947334 4.0968421,22.947334 L 13.218284,15.962189 C 13.218284,15.882332 13.156956,15.818041 13.080776,15.818041 L 4.0968421,15.818041 z "
     id="path1065"
     sodipodi:nodetypes="ccccccc"
     transform="matrix(0.869117,0.000000,0.000000,0.876026,-1.084562,-3.635432)" />
  <path
     style="fill:#757a9e;fill-rule:evenodd;stroke-width:0.42879689;"
     d="M 4.7063109,60.909623 C 4.6348620,60.909623 4.5773416,60.852179 4.5773416,60.780827 L 4.5773416,54.668419 C 4.5773416,54.597066 4.6348620,54.539625 4.7063109,54.539625 L 13.261268,60.780827 C 13.261268,60.852179 13.203750,60.909623 13.132300,60.909623 L 4.7063109,60.909623 z "
     id="path1067"
     sodipodi:nodetypes="ccccccc"
     transform="matrix(0.869117,0.000000,0.000000,0.876026,-1.084562,-3.635432)" />
  <path
     style="fill:#757a9c;fill-rule:evenodd;stroke-width:0.45637316;"
     d="M 66.000121,61.104906 C 66.073427,61.104906 66.132442,61.038288 66.132442,60.955536 L 66.132442,53.866661 C 66.132442,53.783910 66.073427,53.717292 66.000121,53.717292 L 57.222786,60.955536 C 57.222786,61.038288 57.281801,61.104906 57.355107,61.104906 L 66.000121,61.104906 z "
     id="path1068"
     sodipodi:nodetypes="ccccccc"
     transform="matrix(0.869117,0.000000,0.000000,0.876026,-1.084562,-3.635432)" />
  <g
     id="g912"
     transform="matrix(0.869117,0.000000,0.000000,0.876026,-2.753584,-3.635432)"
     style="">
    <rect
       style="fill:#000000;fill-opacity:0.36094674;fill-rule:evenodd;stroke-width:1.1250000;stroke:none;stroke-opacity:1.0000000;stroke-dasharray:none;"
       id="rect906"
       width="24.844721"
       height="31.445974"
       ry="0.0000000"
       x="14.282714"
       y="23.671198" />
    <rect
       style="fill:url(#linearGradient902);fill-opacity:1.0000000;fill-rule:evenodd;stroke-width:1.1250000;stroke:#000000;stroke-opacity:1.0000000;stroke-dasharray:none;"
       id="rect901"
       width="24.844721"
       height="30.965883"
       ry="0.0000000"
       x="12.842441"
       y="22.711015" />
    <rect
       style="fill:#a59c9f;fill-opacity:0.48520711;fill-rule:evenodd;stroke-width:3.0000000pt;"
       id="rect907"
       width="19.683741"
       height="0.96018243"
       x="15.122873"
       y="28.232063" />
    <rect
       style="fill:#a59c9f;fill-opacity:0.48520711;fill-rule:evenodd;stroke-width:3.0000000pt;"
       id="rect908"
       width="19.683741"
       height="0.96018243"
       x="15.122873"
       y="33.032976" />
    <rect
       style="fill:#a59c9f;fill-opacity:0.48520711;fill-rule:evenodd;stroke-width:3.0000000pt;"
       id="rect909"
       width="19.683741"
       height="0.96018243"
       x="15.122873"
       y="37.833886" />
    <rect
       style="fill:#a59c9f;fill-opacity:0.48520711;fill-rule:evenodd;stroke-width:3.0000000pt;"
       id="rect910"
       width="19.683741"
       height="0.96018243"
       x="15.122873"
       y="42.634797" />
    <rect
       style="fill:#a59c9f;fill-opacity:0.48520711;fill-rule:evenodd;stroke-width:3.0000000pt;"
       id="rect911"
       width="19.683741"
       height="0.96018243"
       x="15.122873"
       y="47.435708" />
  </g>
  <path
     style="fill:#757a9c;fill-rule:evenodd;stroke-width:0.51543599;"
     d="M 66.671865,16.029600 C 66.750646,16.029600 66.814068,16.102200 66.814068,16.192377 L 66.814068,23.917492 C 66.814068,24.007670 66.750646,24.080267 66.671865,24.080267 L 57.239098,16.192377 C 57.239098,16.102200 57.302519,16.029600 57.381300,16.029600 L 66.671865,16.029600 z "
     id="path1066"
     sodipodi:nodetypes="ccccccc"
     transform="matrix(0.869117,0.000000,0.000000,0.876026,-1.084562,-3.635432)" />
  <path
     style="fill:#343436;fill-opacity:0.60975611;fill-rule:evenodd;stroke:none;stroke-width:0.79662699;"
     d="M 29.878332,1.4064015 C 29.266550,1.5070945 32.611792,4.5143779 32.116273,4.8398687 C 31.620754,5.1653570 30.266029,7.1310153 30.123837,7.7308188 C 29.981645,8.3306251 26.031041,6.2017003 26.125912,6.8510262 C 26.505398,9.4483305 28.808603,11.236499 31.255732,10.833726 C 31.509653,10.791934 31.702868,10.633896 31.938788,10.550434 C 32.238574,10.822865 33.570215,11.984288 35.625371,13.745470 L 45.885951,22.543694 C 47.893879,24.264403 49.169149,25.336891 49.537647,25.637678 C 49.494148,26.048636 49.416024,26.458030 49.478582,26.886191 C 49.858067,29.483495 52.161273,31.271664 54.608401,30.868891 C 55.220183,30.768198 51.998377,27.740598 52.493897,27.415109 C 52.989414,27.089619 54.344138,25.123965 54.486330,24.524158 C 54.628522,23.924352 58.436041,26.076828 58.341169,25.427501 C 57.961684,22.830198 55.678127,21.038794 53.231000,21.441567 C 52.959839,21.486197 52.739515,21.642574 52.488991,21.734562 C 52.133620,21.415032 50.880872,20.333441 48.873551,18.613252 L 38.612971,9.8150265 C 36.575858,8.0693072 35.270866,6.9546064 34.935530,6.6825636 C 34.983888,6.2588927 35.053127,5.8346632 34.988499,5.3923354 C 34.609015,2.7950311 32.325458,1.0036296 29.878332,1.4064015 z "
     id="path938"
     sodipodi:nodetypes="ccccccccccccccccccccc" />
  <path
     style="fill:#d4d4d6;fill-opacity:0.98958331;fill-rule:evenodd;stroke:#000000;stroke-width:0.65559703;"
     d="M -28.401553,8.7776930 C -28.935049,8.7776930 -26.460545,11.632251 -26.923005,11.827964 C -27.385464,12.023675 -28.783656,13.421867 -28.979367,13.884325 C -29.175079,14.346785 -32.274369,12.117012 -32.274368,12.650508 C -32.274368,14.784492 -30.535537,16.523323 -28.401553,16.523323 C -28.180125,16.523323 -27.995929,16.422041 -27.784645,16.386232 C -27.563255,16.644397 -26.573789,17.752079 -25.042829,19.436503 L -17.400017,27.850450 C -15.904239,29.496165 -14.951711,30.525049 -14.675338,30.815038 C -14.763510,31.139014 -14.880973,31.457163 -14.880973,31.808947 C -14.880973,33.942930 -13.142142,35.681763 -11.008159,35.681762 C -10.474663,35.681762 -12.841526,32.827203 -12.379066,32.631492 C -11.916607,32.435780 -10.518417,31.037591 -10.322705,30.575130 C -10.126993,30.112670 -7.1524801,32.342444 -7.1524801,31.808947 C -7.1524801,29.674964 -8.8741761,27.936131 -11.008159,27.936132 C -11.244621,27.936132 -11.451696,28.032502 -11.676476,28.073223 C -11.939340,27.769929 -12.871557,26.736716 -14.366883,25.091498 L -22.009695,16.677550 C -23.527213,15.007915 -24.499800,13.941238 -24.751511,13.678690 C -24.657618,13.345156 -24.545875,13.013931 -24.545875,12.650508 C -24.545875,10.516524 -26.267571,8.7776930 -28.401553,8.7776930 z "
     id="path914"
     sodipodi:nodetypes="ccccccccccccccccccccc"
     transform="matrix(1.189461,-0.187976,0.184454,1.212176,59.18107,-14.69277)" />
  <path
     style="fill:#939797;fill-opacity:0.98958331;fill-rule:evenodd;stroke-width:0.34558186;"
     d="M 29.748526,3.4437670 C 29.191817,3.5352195 31.779725,5.7632448 31.328813,6.0588650 C 30.877901,6.3544828 29.603656,8.3075080 29.474265,8.8522666 C 29.344873,9.3970277 26.164626,7.5473575 26.250958,8.1370938 C 26.596281,10.496040 28.111541,11.113555 30.338377,10.747745 C 30.569440,10.709788 30.703790,10.734012 30.918472,10.658210 C 31.191272,10.905639 32.610397,11.960477 34.480546,13.560031 L 43.775989,21.592766 C 45.603161,23.155563 46.929518,24.171566 47.264843,24.444750 C 47.225261,24.817993 47.112697,25.063998 47.169623,25.452867 C 47.514947,27.811811 48.530617,29.439837 50.757452,29.074027 C 51.314161,28.982575 48.414233,25.884436 48.865145,25.588819 C 49.316057,25.293200 50.379089,24.017149 50.508481,23.472387 C 50.637873,22.927627 54.781587,25.137173 54.695256,24.547436 C 54.349933,22.188491 52.102206,21.070701 49.875370,21.436512 C 49.628620,21.477047 49.428129,21.619072 49.200159,21.702618 C 48.876778,21.412412 47.567065,20.345212 45.740444,18.782887 L 36.403530,11.131566 C 34.549802,9.5460549 33.192547,8.4487830 32.887398,8.2017061 C 32.931404,7.8169163 32.745577,7.5154979 32.686767,7.1137632 C 32.341444,4.7548174 31.975361,3.0779576 29.748526,3.4437670 z "
     id="path932"
     sodipodi:nodetypes="ccccccccccccccccccccc"
     transform="matrix(1.114013,0.000000,0.000000,1.083786,-4.390423,-1.340074)" />
</svg>
