<?xml version="1.0" encoding="UTF-8" standalone="no"?>
<!DOCTYPE svg PUBLIC "-//W3C//DTD SVG 20010904//EN"
"http://www.w3.org/TR/2001/REC-SVG-20010904/DTD/svg10.dtd">
<!-- Created with Sodipodi ("http://www.sodipodi.com/") -->
<svg
   version="1.0"
   x="0"
   y="0"
   width="48.000000pt"
   height="48.000000pt"
   id="svg1"
   sodipodi:version="0.32"
   sodipodi:docname="gnome-netstatus-rx.svg"
   sodipodi:docbase="/home/krosstok/Desktop/Suede/scalable/apps"
   inkscape:version="0.38.1"
   xmlns="http://www.w3.org/2000/svg"
   xmlns:inkscape="http://www.inkscape.org/namespaces/inkscape"
   xmlns:sodipodi="http://sodipodi.sourceforge.net/DTD/sodipodi-0.dtd"
   xmlns:xlink="http://www.w3.org/1999/xlink">
  <sodipodi:namedview
     id="base"
     inkscape:zoom="3.8020832"
     inkscape:cx="30.267891"
     inkscape:cy="13.686108"
     inkscape:window-width="719"
     inkscape:window-height="499"
     inkscape:window-x="140"
     inkscape:window-y="158" />
  <defs
     id="defs3">
    <linearGradient
       id="linearGradient919">
      <stop
         style="stop-color:#000000;stop-opacity:0.86092716;"
         offset="0.0000000"
         id="stop920" />
      <stop
         style="stop-color:#ffffff;stop-opacity:0.0000000;"
         offset="1.0000000"
         id="stop921" />
    </linearGradient>
    <linearGradient
       id="linearGradient1068">
      <stop
         offset="0.0000000"
         style="stop-color:#d2d2d2;stop-opacity:1.0000000;"
         id="stop1070" />
      <stop
         offset="1.0000000"
         style="stop-color:#ffffff;stop-opacity:1.0000000;"
         id="stop1069" />
    </linearGradient>
    <linearGradient
       id="linearGradient1065">
      <stop
         offset="0.0000000"
         style="stop-color:#ffffff;stop-opacity:1.0000000;"
         id="stop1067" />
      <stop
         offset="1.0000000"
         style="stop-color:#c2bfbf;stop-opacity:0.99607843;"
         id="stop1066" />
    </linearGradient>
    <linearGradient
       id="linearGradient1060">
      <stop
         offset="0.0000000"
         style="stop-color:#878787;stop-opacity:1.0000000;"
         id="stop1063" />
      <stop
         offset="1.0000000"
         style="stop-color:#000000;stop-opacity:0.99607843;"
         id="stop1061" />
    </linearGradient>
    <linearGradient
       id="linearGradient645">
      <stop
         style="stop-color:#aca597;stop-opacity:1.0000000;"
         offset="0.0000000"
         id="stop646" />
      <stop
         style="stop-color:#ffffff;stop-opacity:1.0000000;"
         offset="1.0000000"
         id="stop647" />
    </linearGradient>
    <linearGradient
       id="linearGradient593">
      <stop
         style="stop-color:#478acf;stop-opacity:1.0000000;"
         offset="0.0000000"
         id="stop594" />
      <stop
         style="stop-color:#65c6f7;stop-opacity:1.0000000;"
         offset="1.0000000"
         id="stop595" />
    </linearGradient>
    <linearGradient
       id="linearGradient574">
      <stop
         style="stop-color:#85ad92;stop-opacity:1.0000;"
         offset="0"
         id="stop575" />
      <stop
         style="stop-color:#559db2;stop-opacity:0.7725;"
         offset="1"
         id="stop576" />
    </linearGradient>
    <linearGradient
       id="linearGradient570">
      <stop
         style="stop-color:#999999;stop-opacity:0.7176;"
         offset="0"
         id="stop571" />
      <stop
         style="stop-color:#ffffff;stop-opacity:0.3725;"
         offset="1"
         id="stop572" />
    </linearGradient>
    <linearGradient
       id="linearGradient573"
       xlink:href="#linearGradient1068"
       x1="0.57931036"
       y1="1.4772727"
       x2="0.34482759"
       y2="-0.25000000" />
    <linearGradient
       id="linearGradient1213"
       xlink:href="#linearGradient1068"
       x1="1.0192926"
       y1="0.99115056"
       x2="0.49839231"
       y2="0.41592926" />
    <radialGradient
       id="radialGradient581"
       xlink:href="#linearGradient919"
       cx="0.095785439"
       cy="0.16814159"
       r="1.5409589"
       fx="0.095785439"
       fy="0.16814159" />
    <linearGradient
       id="linearGradient580"
       xlink:href="#linearGradient1068"
       x1="1.0723866"
       y1="0.85896289"
       x2="0.85338652"
       y2="0.42466211" />
    <linearGradient
       xlink:href="#linearGradient1060"
       id="linearGradient901"
       x1="0.93491787"
       y1="0.92044502"
       x2="-0.052546836"
       y2="0.20347559" />
    <linearGradient
       xlink:href="#linearGradient593"
       id="linearGradient902" />
    <linearGradient
       xlink:href="#linearGradient1068"
       id="linearGradient916"
       x1="0.14831461"
       y1="-1.6875000"
       x2="0.43370786"
       y2="1.8125000" />
    <defs
       id="defs890">
      <linearGradient
         id="linearGradient922"
         x1="0.0000000"
         y1="0.50000000"
         x2="1.0000000"
         y2="0.50000000"
         gradientUnits="objectBoundingBox"
         spreadMethod="pad"
         xlink:href="#linearGradient1065" />
      <linearGradient
         id="linearGradient908"
         x1="0.0000000"
         y1="0.50000000"
         x2="1.0000000"
         y2="0.50000000"
         gradientUnits="objectBoundingBox"
         spreadMethod="pad"
         xlink:href="#linearGradient1060" />
      <linearGradient
         id="linearGradient894"
         x1="0.0000000"
         y1="0.50000000"
         x2="1.0000000"
         y2="0.50000000"
         gradientUnits="objectBoundingBox"
         spreadMethod="pad"
         xlink:href="#linearGradient1068" />
      <linearGradient
         xlink:href="#linearGradient894"
         id="linearGradient897"
         x1="0.59550560"
         y1="-0.33587787"
         x2="0.61348313"
         y2="1.1908396" />
      <linearGradient
         xlink:href="#linearGradient894"
         id="linearGradient898"
         x1="0.96449792"
         y1="1.0278323"
         x2="0.46738392"
         y2="0.21800731" />
      <linearGradient
         xlink:href="#linearGradient908"
         id="linearGradient907"
         x1="0.57078654"
         y1="2.3770492"
         x2="0.33258426"
         y2="0.49180329" />
      <linearGradient
         xlink:href="#linearGradient922"
         id="linearGradient921"
         x1="0.47058824"
         y1="0.15384616"
         x2="0.46547315"
         y2="0.98380566" />
      <linearGradient
         xlink:href="#linearGradient922"
         id="linearGradient948" />
      <defs
         id="defs987">
        <linearGradient
           id="linearGradient855"
           x1="0.0000000"
           y1="0.50000000"
           x2="1.0000000"
           y2="0.50000000"
           gradientUnits="objectBoundingBox"
           spreadMethod="pad"
           xlink:href="#linearGradient908" />
        <linearGradient
           id="linearGradient1188"
           x1="0.0000000"
           y1="0.50000000"
           x2="1.0000000"
           y2="0.50000000"
           gradientUnits="objectBoundingBox"
           spreadMethod="pad"
           xlink:href="#linearGradient922" />
        <linearGradient
           id="linearGradient831">
          <stop
             style="stop-color:#94897f;stop-opacity:1.0000000;"
             offset="0.0000000"
             id="stop832" />
          <stop
             style="stop-color:#fff5fe;stop-opacity:1.0000000;"
             offset="1.0000000"
             id="stop833" />
        </linearGradient>
        <linearGradient
           xlink:href="#linearGradient1188"
           id="linearGradient834"
           x1="0.87550199"
           y1="0.34817815"
           x2="-0.29317269"
           y2="0.93522269"
           gradientUnits="objectBoundingBox"
           spreadMethod="pad" />
        <radialGradient
           xlink:href="#linearGradient1188"
           id="radialGradient835"
           r="0.55628061"
           fy="0.28125"
           fx="0.59090906"
           cy="0.28125"
           cx="0.59090906"
           spreadMethod="pad" />
        <linearGradient
           xlink:href="#linearGradient1188"
           id="linearGradient893"
           x1="0.12793733"
           y1="0.76923078"
           x2="0.49608356"
           y2="0.70850199" />
        <linearGradient
           xlink:href="#linearGradient855"
           id="linearGradient625"
           x1="0.035955057"
           y1="1.0276498"
           x2="0.053932585"
           y2="-0.35944700" />
        <linearGradient
           xlink:href="#linearGradient1188"
           id="linearGradient627"
           x1="1.2826855"
           y1="0.12550607"
           x2="-0.15547703"
           y2="0.96356273" />
        <radialGradient
           xlink:href="#linearGradient1188"
           id="radialGradient628"
           r="1.59822237"
           fy="0.4866707"
           fx="0.36789617"
           cy="0.4866707"
           cx="0.36789617"
           gradientTransform="scale(0.877379,1.139758)" />
        <linearGradient
           xlink:href="#linearGradient1188"
           id="linearGradient628"
           x1="0.76923078"
           y1="0.14979757"
           x2="0.41909814"
           y2="0.73279351" />
      </defs>
      <sodipodi:namedview
         id="namedview898"
         pagecolor="#ffffff"
         bordercolor="#666666"
         borderopacity="1.0"
         inkscape:pageopacity="0.0"
         inkscape:pageshadow="2"
         inkscape:zoom="3.4732669"
         inkscape:cx="50.051177"
         inkscape:cy="18.096983"
         inkscape:window-width="1022"
         inkscape:window-height="670"
         showguides="false"
         snaptoguides="false"
         showgrid="false"
         snaptogrid="false"
         inkscape:window-x="0"
         inkscape:window-y="25">
        <sodipodi:guide
           orientation="vertical"
           position="28.705556"
           id="guide879" />
        <sodipodi:guide
           orientation="horizontal"
           position="30.130655"
           id="guide880" />
      </sodipodi:namedview>
    </defs>
    <sodipodi:namedview
       id="namedview1003"
       pagecolor="#ffffff"
       bordercolor="#666666"
       borderopacity="1.0"
       inkscape:pageopacity="0.0"
       inkscape:pageshadow="2"
       inkscape:zoom="1.3368738"
       inkscape:cx="24.541029"
       inkscape:cy="14.368596"
       inkscape:window-width="640"
       inkscape:window-height="499"
       showguides="true"
       snaptoguides="true"
       inkscape:window-x="138"
       inkscape:window-y="169" />
    <linearGradient
       xlink:href="#linearGradient1060"
       id="linearGradient1304"
       x1="-0.20218579"
       y1="0.21681416"
       x2="0.67759562"
       y2="0.57522124" />
    <linearGradient
       xlink:href="#linearGradient1065"
       id="linearGradient1322"
       x1="0.32404181"
       y1="0.77876109"
       x2="0.24041812"
       y2="0.26548672" />
  </defs>
  <rect
     style="fill-opacity:0.47154471;fill-rule:evenodd;stroke-width:3.0000000pt;"
     id="rect918"
     width="39.595087"
     height="36.057745"
     ry="0.91996812"
     x="4.1002045"
     y="16.197172"
     transform="matrix(1.027025,0.000000,0.000000,0.976021,-1.850885e-2,2.043637)" />
  <rect
     style="fill-opacity:0.62601626;fill-rule:evenodd;"
     id="rect1005"
     width="36.232574"
     height="5.9354477"
     ry="0.77940226"
     x="4.6802381"
     y="50.204611"
     transform="matrix(1.027025,0.000000,0.000000,0.976021,13.46495,-11.20736)" />
  <rect
     style="fill-opacity:0.47154471;fill-rule:evenodd;stroke-width:3.0000000pt;"
     id="rect1006"
     width="39.595087"
     height="36.057745"
     ry="0.91996812"
     x="4.1002045"
     y="16.197172"
     transform="matrix(1.027025,0.000000,0.000000,0.976021,13.46495,-11.20736)" />
  <rect
     style="fill:url(#linearGradient573);fill-opacity:0.75000000;fill-rule:evenodd;stroke:#000000;"
     id="rect1007"
     width="29.756605"
     height="3.4871020"
     ry="0.45790231"
     x="5.8118368"
     y="53.025795"
     transform="matrix(1.187133,0.000000,0.000000,1.133584,10.87306,-22.23259)" />
  <rect
     width="40.052029"
     height="33.147816"
     ry="1.6277504"
     x="12.430549"
     y="8.9460497"
     style="font-size:12.000000;fill:url(#linearGradient580);fill-rule:evenodd;stroke:#000000;stroke-width:1.0223329;"
     id="rect1008"
     transform="matrix(1.038205,0.000000,0.000000,1.049339,1.798911,-5.955275)" />
  <rect
     width="40.397691"
     height="30.109898"
     ry="2.1429338"
     x="14.701336"
     y="7.2551551"
     style="font-size:12.000000;fill:url(#linearGradient1213);fill-rule:evenodd;stroke:#000000;stroke-width:0.0000000;"
     id="rect1009"
     transform="matrix(0.922123,0.000000,0.000000,1.005993,3.677379,-1.476024)" />
  <rect
     width="37.290400"
     height="26.522994"
     ry="0.67670087"
     x="15.787270"
     y="9.5822464"
     style="font-size:12.000000;fill:#00b4ed;fill-rule:evenodd;stroke:#000000;stroke-width:0.55000001;stroke-linejoin:round;fill-opacity:1.0000000;"
     id="rect1010"
     transform="matrix(0.882065,0.000000,0.000000,0.969344,4.905103,-1.796396)" />
  <rect
     style="fill-opacity:0.62601626;fill-rule:evenodd;"
     id="rect971"
     width="36.232574"
     height="5.9354477"
     ry="0.77940226"
     x="4.6802381"
     y="50.204611"
     transform="matrix(1.027025,0.000000,0.000000,0.976021,-1.850885e-2,2.043637)" />
  <rect
     style="fill:url(#linearGradient573);fill-opacity:0.75000000;fill-rule:evenodd;stroke:#000000;"
     id="rect934"
     width="29.756605"
     height="3.4871020"
     ry="0.45790231"
     x="5.8118368"
     y="53.025795"
     transform="matrix(1.187133,0.000000,0.000000,1.133584,-2.610402,-8.981594)" />
  <rect
     width="40.052029"
     height="33.147816"
     ry="1.6277504"
     x="12.430549"
     y="8.9460497"
     style="font-size:12.000000;fill:url(#linearGradient580);fill-rule:evenodd;stroke:#000000;stroke-width:1.0223329;"
     id="rect562"
     transform="matrix(1.038205,0.000000,0.000000,1.049339,-11.68455,7.295720)" />
  <rect
     width="40.397691"
     height="30.109898"
     ry="2.1429338"
     x="14.701336"
     y="7.2551551"
     style="font-size:12.000000;fill:url(#linearGradient1213);fill-rule:evenodd;stroke:#000000;stroke-width:0.0000000;"
     id="rect575"
     transform="matrix(0.922123,0.000000,0.000000,1.005993,-9.806080,11.77497)" />
  <rect
     width="37.290400"
     height="26.522994"
     ry="0.67670087"
     x="15.787270"
     y="9.5822464"
     style="font-size:12.000000;fill:url(#linearGradient901);fill-rule:evenodd;stroke:#000000;stroke-width:0.55000001;stroke-linejoin:round;"
     id="rect563"
     transform="matrix(0.882065,0.000000,0.000000,0.969344,-8.578356,11.45460)" />
</svg>
