<?xml version="1.0" encoding="UTF-8" standalone="no"?>
<!DOCTYPE svg PUBLIC "-//W3C//DTD SVG 20010904//EN"
"http://www.w3.org/TR/2001/REC-SVG-20010904/DTD/svg10.dtd">
<!-- Created with Sodipodi ("http://www.sodipodi.com/") -->
<svg
   id="svg602"
   sodipodi:version="0.32"
   width="48pt"
   height="48pt"
   xml:space="preserve"
   sodipodi:docbase="/home/krosstok/Desktop/tempmime"
   sodipodi:docname="gnome-mime-audio-ogg.svg"
   inkscape:version="0.38.1"
   xmlns="http://www.w3.org/2000/svg"
   xmlns:inkscape="http://www.inkscape.org/namespaces/inkscape"
   xmlns:sodipodi="http://sodipodi.sourceforge.net/DTD/sodipodi-0.dtd"
   xmlns:xml="http://www.w3.org/XML/1998/namespace"
   xmlns:xlink="http://www.w3.org/1999/xlink"><defs
   id="defs604"><linearGradient
   id="linearGradient912">
      <stop
   style="stop-color:#ffffff;stop-opacity:1.0000000;"
   offset="0.0000000"
   id="stop914" />




















      <stop
   style="stop-color:#a0a2a0;stop-opacity:1.0000000;"
   offset="1.0000000"
   id="stop916" />




















    </linearGradient>









<linearGradient
   id="linearGradient960">
      <stop
   style="stop-color:#7590ae;stop-opacity:1.0000000;"
   offset="0.0000000"
   id="stop962" />




















      <stop
   style="stop-color:#314e6c;stop-opacity:1.0000000;"
   offset="1.0000000"
   id="stop964" />




















    </linearGradient>










<linearGradient
   id="linearGradient954">
      <stop
   style="stop-color:#ffffff;stop-opacity:1.0000000;"
   offset="0.0000000"
   id="stop956" />




















      <stop
   style="stop-color:#14a2da;stop-opacity:1.0000000;"
   offset="1.0000000"
   id="stop958" />




















    </linearGradient>










<linearGradient
   id="linearGradient891">
      <stop
   style="stop-color:#fbffbf;stop-opacity:1.0000000;"
   offset="0.0000000"
   id="stop893" />




















      <stop
   style="stop-color:#ffffff;stop-opacity:0.13008130;"
   offset="1.0000000"
   id="stop895" />




















    </linearGradient>












    <linearGradient
   id="linearGradient622">
      <stop
   style="stop-color:#f8e29d;stop-opacity:0.4471;"
   offset="0"
   id="stop623" />




















      <stop
   style="stop-color:#272d2d;stop-opacity:0.4784;"
   offset="1"
   id="stop624" />




















    </linearGradient>




















    <linearGradient
   id="linearGradient617">
      <stop
   style="stop-color:#ffffff;stop-opacity:1.0000000;"
   offset="0.0000000"
   id="stop618" />




















      <stop
   style="stop-color:#565248;stop-opacity:1.0000000;"
   offset="1.0000000"
   id="stop619" />




















    </linearGradient>




















    <linearGradient
   id="linearGradient613">
      <stop
   style="stop-color:#ffffff;stop-opacity:0.0000000;"
   offset="0.0000000"
   id="stop614" />




















      <stop
   style="stop-color:#898989;stop-opacity:0.45528457;"
   offset="1.0000000"
   id="stop615" />




















    </linearGradient>




















    <linearGradient
   id="linearGradient607">
      <stop
   style="stop-color:#d7d5d5;stop-opacity:1.0000000;"
   offset="0.0000000"
   id="stop608" />




















      <stop
   style="stop-color:#000000;stop-opacity:0.4039;"
   offset="1"
   id="stop609" />




















    </linearGradient>




















    <radialGradient
   xlink:href="#linearGradient891"
   id="radialGradient610"
   cx="0.45522389"
   cy="0.45312500"
   r="0.48908448"
   fx="0.45522389"
   fy="0.45312500" />




















    <linearGradient
   xlink:href="#linearGradient617"
   id="linearGradient612"
   x1="0.39686918"
   y1="0.97534692"
   x2="0.41513580"
   y2="0.62097520"
   gradientUnits="objectBoundingBox" />




















    <radialGradient
   xlink:href="#linearGradient613"
   id="radialGradient616"
   cx="0.21333396"
   cy="0.38369742"
   r="1.7808846"
   fx="0.21333396"
   fy="0.38369742"
   gradientTransform="scale(0.962608,1.038844)"
   gradientUnits="objectBoundingBox" />




















    <linearGradient
   xlink:href="#linearGradient617"
   id="linearGradient621"
   x1="-0.42741936"
   y1="0.90625"
   x2="-0.96774197"
   y2="0.7890625" />




















    <linearGradient
   xlink:href="#linearGradient617"
   id="linearGradient626"
   x1="-0.59104401"
   y1="-0.30253443"
   x2="0.35769230"
   y2="0.85937500" />




















    <linearGradient
   xlink:href="#linearGradient617"
   id="linearGradient687"
   x1="0.61332619"
   y1="1.1830040"
   x2="0.80003732"
   y2="0.65496588" />




















    <linearGradient
   xlink:href="#linearGradient613"
   id="linearGradient742"
   x1="0.24554488"
   y1="0.78758895"
   x2="0.32109740"
   y2="1.0231930"
   gradientTransform="scale(0.962609,1.038844)"
   gradientUnits="objectBoundingBox" />




















  <linearGradient
   xlink:href="#linearGradient912"
   id="linearGradient1039" />





<defs
   id="defs1100"><linearGradient
   id="linearGradient1101">
      <stop
   style="stop-color:#ffffff;stop-opacity:1.0000000;"
   offset="0.0000000"
   id="stop1103" />




















      <stop
   style="stop-color:#a0a2a0;stop-opacity:1.0000000;"
   offset="1.0000000"
   id="stop1105" />




















    </linearGradient>









<linearGradient
   id="linearGradient1108">
      <stop
   style="stop-color:#7590ae;stop-opacity:1.0000000;"
   offset="0.0000000"
   id="stop1110" />




















      <stop
   style="stop-color:#314e6c;stop-opacity:1.0000000;"
   offset="1.0000000"
   id="stop1112" />




















    </linearGradient>










<linearGradient
   id="linearGradient1115">
      <stop
   style="stop-color:#ffffff;stop-opacity:1.0000000;"
   offset="0.0000000"
   id="stop1117" />




















      <stop
   style="stop-color:#14a2da;stop-opacity:1.0000000;"
   offset="1.0000000"
   id="stop1119" />




















    </linearGradient>










<linearGradient
   id="linearGradient1122">
      <stop
   style="stop-color:#fbffbf;stop-opacity:1.0000000;"
   offset="0.0000000"
   id="stop1124" />




















      <stop
   style="stop-color:#ffffff;stop-opacity:0.13008130;"
   offset="1.0000000"
   id="stop1126" />




















    </linearGradient>












    <linearGradient
   id="linearGradient1129">
      <stop
   style="stop-color:#f8e29d;stop-opacity:0.4471;"
   offset="0"
   id="stop1131" />




















      <stop
   style="stop-color:#272d2d;stop-opacity:0.4784;"
   offset="1"
   id="stop1133" />




















    </linearGradient>




















    <linearGradient
   id="linearGradient1136">
      <stop
   style="stop-color:#ffffff;stop-opacity:1.0000000;"
   offset="0.0000000"
   id="stop1138" />




















      <stop
   style="stop-color:#565248;stop-opacity:1.0000000;"
   offset="1.0000000"
   id="stop1140" />




















    </linearGradient>




















    <linearGradient
   id="linearGradient1143">
      <stop
   style="stop-color:#ffffff;stop-opacity:0.0000000;"
   offset="0.0000000"
   id="stop1145" />




















      <stop
   style="stop-color:#ffffff;stop-opacity:0.69918698;"
   offset="1.0000000"
   id="stop1147" />




















    </linearGradient>




















    <linearGradient
   id="linearGradient1150">
      <stop
   style="stop-color:#d7d5d5;stop-opacity:1.0000000;"
   offset="0.0000000"
   id="stop1152" />




















      <stop
   style="stop-color:#000000;stop-opacity:0.4039;"
   offset="1"
   id="stop1154" />




















    </linearGradient>




















    <radialGradient
   xlink:href="#linearGradient891"
   id="radialGradient1157"
   cx="0.45522389"
   cy="0.45312500"
   r="0.48908448"
   fx="0.45522389"
   fy="0.45312500" />




















    <linearGradient
   xlink:href="#linearGradient617"
   id="linearGradient1159"
   x1="0.39686918"
   y1="0.97534692"
   x2="0.41513580"
   y2="0.62097520"
   gradientUnits="objectBoundingBox" />




















    <radialGradient
   xlink:href="#linearGradient613"
   id="radialGradient1161"
   cx="0.21333396"
   cy="0.38369742"
   r="1.7808846"
   fx="0.21333396"
   fy="0.38369742"
   gradientTransform="scale(0.962608,1.038844)"
   gradientUnits="objectBoundingBox" />




















    <linearGradient
   xlink:href="#linearGradient617"
   id="linearGradient1163"
   x1="-0.42741936"
   y1="0.90625"
   x2="-0.96774197"
   y2="0.7890625" />




















    <linearGradient
   xlink:href="#linearGradient617"
   id="linearGradient1165"
   x1="-0.59104401"
   y1="-0.30253443"
   x2="0.35769230"
   y2="0.85937500" />




















    <linearGradient
   xlink:href="#linearGradient617"
   id="linearGradient1167"
   x1="0.61332619"
   y1="1.1830040"
   x2="0.80003732"
   y2="0.65496588" />




















    <linearGradient
   xlink:href="#linearGradient613"
   id="linearGradient1169"
   x1="0.30220908"
   y1="0.79432046"
   x2="0.32109731"
   y2="1.0231928"
   gradientTransform="scale(0.962609,1.038844)"
   gradientUnits="objectBoundingBox" />




















  <linearGradient
   xlink:href="#linearGradient912"
   id="linearGradient1171" />





</defs>

<sodipodi:namedview
   id="namedview1174"
   inkscape:zoom="2.6884790"
   inkscape:cx="22.431804"
   inkscape:cy="-13.996389"
   inkscape:window-width="640"
   inkscape:window-height="501"
   inkscape:window-x="-41"
   inkscape:window-y="209"
   showguides="false"
   snaptoguides="false">
    <sodipodi:guide
   orientation="horizontal"
   position="43.519031"
   id="guide1176" />





  </sodipodi:namedview>

</defs>

<rect
   style="fill:#000006;fill-opacity:0.68292683;fill-rule:evenodd;stroke:none;stroke-width:0.99266949pt;"
   id="rect933"
   width="48.605208"
   height="53.933841"
   ry="1.8602422"
   x="7.8949676"
   y="5.8336849" />



<sodipodi:namedview
   id="base"
   inkscape:zoom="5.3769580"
   inkscape:cx="22.431807"
   inkscape:cy="28.554352"
   inkscape:window-width="640"
   inkscape:window-height="501"
   inkscape:window-x="121"
   inkscape:window-y="142"
   showguides="false"
   snaptoguides="false">
    <sodipodi:guide
   orientation="horizontal"
   position="43.519031"
   id="guide1036" />





  </sodipodi:namedview>



<rect
   style="fill:#ffffff;fill-opacity:1.0000000;fill-rule:evenodd;stroke:#000000;stroke-width:0.48750000;stroke-opacity:1.0000000;stroke-dasharray:none;"
   id="rect932"
   width="45.815529"
   height="52.771473"
   ry="1.8201507"
   x="8.5923881"
   y="5.3687382" />







  

  

  

  

  
  

  




  





  





  





  





  
    <path
   sodipodi:type="arc"
   style="font-size:12.000000;fill:#444040;fill-opacity:0.44200000;fill-rule:evenodd;"
   id="path672"
   d="M 68.473 57.85183 A 23.6299 3.222258 0 1 0 21.2132 57.85183 A 23.6299 3.222258 0 1 0  68.473 57.85183 z"
   sodipodi:cx="44.8431015"
   sodipodi:cy="57.8518295"
   sodipodi:rx="23.6298981"
   sodipodi:ry="3.22225761"
   transform="matrix(0.338364,0.000000,-7.196567e-2,0.471439,30.81545,24.63180)" />













    <path
   sodipodi:type="arc"
   style="font-size:12.000000;fill:url(#linearGradient626);fill-rule:evenodd;stroke:#000000;stroke-width:2.3002000;stroke-opacity:0.95649999;"
   id="path625"
   d="M 58.29114 27.53164 A 19.36709 19.55696 0 1 0 19.55696 27.53164 A 19.36709 19.55696 0 1 0  58.29114 27.53164 z"
   sodipodi:cx="38.9240494"
   sodipodi:cy="27.5316448"
   sodipodi:rx="19.3670883"
   sodipodi:ry="19.556963"
   transform="matrix(-0.242027,-0.112606,-0.131423,0.315789,56.32717,40.72330)" />













    <path
   sodipodi:type="arc"
   style="font-size:12.000000;fill:url(#linearGradient612);fill-rule:evenodd;stroke:#000000;stroke-width:2.0610001;stroke-opacity:0.95649999;"
   id="path605"
   d="M 58.29114 27.53164 A 19.36709 19.55696 0 1 0 19.55696 27.53164 A 19.36709 19.55696 0 1 0  58.29114 27.53164 z"
   sodipodi:cx="38.9240494"
   sodipodi:cy="27.5316448"
   sodipodi:rx="19.3670883"
   sodipodi:ry="19.556963"
   transform="matrix(-0.340737,-0.189425,-0.268847,0.531217,58.99925,34.09440)" />




<path
   sodipodi:type="arc"
   style="font-size:12.000000;fill:url(#radialGradient616);fill-rule:evenodd;stroke:#000000;stroke-width:0.31700000;stroke-opacity:0.97829998;"
   id="path606"
   d="M 58.29114 27.53164 A 19.36709 19.55696 0 1 0 19.55696 27.53164 A 19.36709 19.55696 0 1 0  58.29114 27.53164 z"
   sodipodi:cx="38.9240494"
   sodipodi:cy="27.5316448"
   sodipodi:rx="19.3670883"
   sodipodi:ry="19.556963"
   transform="matrix(-0.274718,-0.166025,-0.227539,0.465590,54.23886,34.50620)" />













    








    <path
   sodipodi:type="arc"
   style="font-size:12.000000;fill-rule:evenodd;stroke-width:1.6350000;"
   id="path686"
   d="M 58.29114 27.53164 A 19.36709 19.55696 0 1 0 19.55696 27.53164 A 19.36709 19.55696 0 1 0  58.29114 27.53164 z"
   sodipodi:cx="38.9240494"
   sodipodi:cy="27.5316448"
   sodipodi:rx="19.3670883"
   sodipodi:ry="19.556963"
   transform="matrix(-9.396908e-2,-0.108055,-0.125818,0.223944,45.94225,39.57170)" />













    <path
   sodipodi:type="arc"
   style="font-size:12.000000;fill:url(#linearGradient687);fill-rule:evenodd;stroke:#3f3b3b;stroke-width:0.77380002;"
   id="path611"
   d="M 58.29114 27.53164 A 19.36709 19.55696 0 1 0 19.55696 27.53164 A 19.36709 19.55696 0 1 0  58.29114 27.53164 z"
   sodipodi:cx="38.9240494"
   sodipodi:cy="27.5316448"
   sodipodi:rx="19.3670883"
   sodipodi:ry="19.556963"
   transform="matrix(-8.791058e-2,-9.734990e-2,-0.117706,0.201758,45.24033,39.48590)" />













    <path
   style="font-size:12.000000;fill-rule:evenodd;stroke:#000000;stroke-width:0.22035471;stroke-linejoin:round;"
   d="M 36.383433,23.214293 L 32.262849,29.201122 C 30.173346,25.034088 28.771119,28.577160 29.410731,30.448165 C 30.148407,31.803480 30.967921,33.091758 32.378968,30.847703 L 35.851114,26.056105 L 37.682094,27.353633 L 39.158240,25.927124 L 36.383433,23.214293 z "
   id="path735"
   sodipodi:nodetypes="cccccccc" />













    <path
   style="font-size:12.000000;fill-rule:evenodd;stroke:#000000;stroke-width:0.073451571;stroke-linejoin:round;"
   d="M 23.635030,41.245064 L 22.955556,48.405863 C 18.513873,46.507730 19.139146,50.100444 20.837470,51.138580 C 22.339667,51.719791 23.884868,52.198599 24.007249,49.597586 L 24.723783,43.757950 L 27.276953,43.614247 L 27.928894,41.600289 L 23.635030,41.245064 z "
   id="path736"
   sodipodi:nodetypes="cccccccc" />













    <path
   style="font-size:12.000000;fill-rule:evenodd;stroke:#000000;stroke-width:0.073429875;stroke-linejoin:round;"
   d="M 19.148033,25.907815 L 21.095939,31.731581 C 16.713155,31.384930 18.498734,34.056577 20.284311,34.435477 C 21.745246,34.504808 23.206175,34.482229 22.394544,32.399098 L 20.941888,27.607750 L 25.265481,26.278146 L 24.615540,24.520882 L 19.148033,25.907815 z "
   id="path734"
   sodipodi:nodetypes="cccccccc" />













    <path
   style="font-size:12.000000;fill-rule:evenodd;stroke:#000000;stroke-width:0.073429823;stroke-linejoin:round;"
   d="M 24.064064,24.634190 L 26.279761,30.457968 C 21.896981,30.111312 23.682556,32.782966 25.468132,33.161866 C 26.929068,33.231198 28.389994,33.208616 27.578364,31.125484 L 25.590141,24.178139 L 24.064064,24.634190 z "
   id="path738"
   sodipodi:nodetypes="cccccc" />













  





  





  
  
  
  
  
  
  
  






  
  
  
  
  
  
  
  
  







  













  




  




  











  
    

    

    








  






  






  






  






  




  




  
  
  
  
  
  
  
  





  
  
  
  
  
  
  
  
  






  

























































    
      
      
      
    
  













<rect
   style="font-size:12;fill:url(#linearGradient742);fill-rule:evenodd;stroke-width:1.295431;stroke-linejoin:round;"
   id="rect809"
   width="35.278572"
   height="46.197449"
   x="17.747970"
   y="10.718132"
   ry="1.5934047" />













  

  

  

  

  
  

  




  





  





  





  





  
    











    











    














    








    











    











    











    











    











    











  





  





  
  
  
  
  
  
  
  






  
  
  
  
  
  
  
  
  







  













  




  




  











  
    

    

    








  






  






  






  






  




  




  
  
  
  
  
  
  
  





  
  
  
  
  
  
  
  
  






  

























































    
      
      
      
    
  










<rect
   style="fill:#ffffff;fill-rule:evenodd;stroke:#78787e;stroke-width:0.80786693;"
   id="rect876"
   width="27.218390"
   height="12.008054"
   ry="1.0259868"
   x="17.077301"
   y="6.8038621" />



<rect
   style="fill:#314e6c;fill-rule:evenodd;stroke:#000000;stroke-width:0.41249999;"
   id="rect1035"
   width="26.499226"
   height="10.404858"
   ry="0.88900727"
   x="17.430546"
   y="7.5413804" />








<path
   style="font-size:10.000000;font-weight:bold;stroke-width:1.0000000pt;font-family:Bitstream Vera Sans;fill:#ffffff;fill-opacity:1.0000000;"
   d="M 39.279005,13.972416 C 39.038119,14.291426 38.772820,14.525801 38.483106,14.675541 C 38.193393,14.825280 37.858106,14.900150 37.477247,14.900150 C 36.809929,14.900150 36.258171,14.638106 35.821974,14.114017 C 35.385776,13.586674 35.167677,12.916101 35.167677,12.102299 C 35.167677,11.285241 35.385776,10.616296 35.821974,10.095463 C 36.258171,9.5713737 36.809929,9.3093297 37.477247,9.3093297 C 37.858106,9.3093297 38.193393,9.3841997 38.483106,9.5339387 C 38.772820,9.6836787 39.038119,9.9196807 39.279005,10.241947 L 39.279005,9.4313997 L 41.036817,9.4313997 L 41.036817,14.348392 C 41.036817,15.227299 40.758497,15.897872 40.201856,16.360111 C 39.648471,16.825606 38.844434,17.058353 37.789747,17.058353 C 37.447950,17.058353 37.117546,17.032312 36.798536,16.980228 C 36.479526,16.928145 36.158888,16.848392 35.836622,16.740970 L 35.836622,15.378666 C 36.142612,15.554447 36.442091,15.684655 36.735059,15.769291 C 37.028028,15.857181 37.322625,15.901127 37.618849,15.901127 C 38.191765,15.901127 38.611687,15.775801 38.878614,15.525150 C 39.145541,15.274499 39.279005,14.882247 39.279005,14.348392 L 39.279005,13.972416 z M 38.126661,10.569095 C 37.765333,10.569095 37.483757,10.702559 37.281934,10.969486 C 37.080112,11.236413 36.979200,11.614017 36.979200,12.102299 C 36.979200,12.603601 37.076856,12.984460 37.272169,13.244877 C 37.467481,13.502038 37.752312,13.630619 38.126661,13.630619 C 38.491244,13.630619 38.774448,13.497155 38.976270,13.230228 C 39.178093,12.963301 39.279005,12.587325 39.279005,12.102299 C 39.279005,11.614017 39.178093,11.236413 38.976270,10.969486 C 38.774448,10.702559 38.491244,10.569095 38.126661,10.569095 z M 32.120802,13.972416 C 31.879916,14.291426 31.614617,14.525801 31.324903,14.675541 C 31.035190,14.825280 30.699903,14.900150 30.319044,14.900150 C 29.651726,14.900150 29.099968,14.638106 28.663770,14.114017 C 28.227573,13.586674 28.009474,12.916101 28.009474,12.102299 C 28.009474,11.285241 28.227573,10.616296 28.663770,10.095463 C 29.099968,9.5713737 29.651726,9.3093297 30.319044,9.3093297 C 30.699903,9.3093297 31.035190,9.3841997 31.324903,9.5339387 C 31.614617,9.6836787 31.879916,9.9196807 32.120802,10.241947 L 32.120802,9.4313997 L 33.878614,9.4313997 L 33.878614,14.348392 C 33.878614,15.227299 33.600294,15.897872 33.043653,16.360111 C 32.490268,16.825606 31.686231,17.058353 30.631544,17.058353 C 30.289747,17.058353 29.959343,17.032312 29.640333,16.980228 C 29.321323,16.928145 29.000684,16.848392 28.678419,16.740970 L 28.678419,15.378666 C 28.984408,15.554447 29.283888,15.684655 29.576856,15.769291 C 29.869825,15.857181 30.164421,15.901127 30.460645,15.901127 C 31.033562,15.901127 31.453484,15.775801 31.720411,15.525150 C 31.987338,15.274499 32.120802,14.882247 32.120802,14.348392 L 32.120802,13.972416 z M 30.968458,10.569095 C 30.607130,10.569095 30.325554,10.702559 30.123731,10.969486 C 29.921908,11.236413 29.820997,11.614017 29.820997,12.102299 C 29.820997,12.603601 29.918653,12.984460 30.113966,13.244877 C 30.309278,13.502038 30.594109,13.630619 30.968458,13.630619 C 31.333041,13.630619 31.616244,13.497155 31.818067,13.230228 C 32.019890,12.963301 32.120802,12.587325 32.120802,12.102299 C 32.120802,11.614017 32.019890,11.236413 31.818067,10.969486 C 31.616244,10.702559 31.333041,10.569095 30.968458,10.569095 z M 24.132520,10.549564 C 23.745151,10.549564 23.448927,10.689538 23.243849,10.969486 C 23.042026,11.246179 22.941114,11.646569 22.941114,12.170658 C 22.941114,12.694747 23.042026,13.096765 23.243849,13.376713 C 23.448927,13.653405 23.745151,13.791752 24.132520,13.791752 C 24.513380,13.791752 24.804721,13.653405 25.006544,13.376713 C 25.208367,13.096765 25.309278,12.694747 25.309278,12.170658 C 25.309278,11.646569 25.208367,11.246179 25.006544,10.969486 C 24.804721,10.689538 24.513380,10.549564 24.132520,10.549564 z M 24.132520,9.2995637 C 25.073276,9.2995637 25.807325,9.5534697 26.334669,10.061283 C 26.865268,10.569095 27.130567,11.272220 27.130567,12.170658 C 27.130567,13.069095 26.865268,13.772220 26.334669,14.280033 C 25.807325,14.787845 25.073276,15.041752 24.132520,15.041752 C 23.188510,15.041752 22.449578,14.787845 21.915724,14.280033 C 21.385125,13.772220 21.119825,13.069095 21.119825,12.170658 C 21.119825,11.272220 21.385125,10.569095 21.915724,10.061283 C 22.449578,9.5534697 23.188510,9.2995637 24.132520,9.2995637 z "
   id="path1019" />
</svg>
