<?xml version="1.0" encoding="UTF-8" standalone="no"?>
<!DOCTYPE svg PUBLIC "-//W3C//DTD SVG 20010904//EN"
"http://www.w3.org/TR/2001/REC-SVG-20010904/DTD/svg10.dtd">
<!-- Created with Sodipodi ("http://www.sodipodi.com/") -->
<svg
   id="svg602"
   sodipodi:version="0.32"
   width="48pt"
   height="48pt"
   xml:space="preserve"
   sodipodi:docbase="/home/krosstok/Desktop/tempmime"
   sodipodi:docname="gnome-mime-audio-x-aiff.svg"
   inkscape:version="0.38.1"
   xmlns="http://www.w3.org/2000/svg"
   xmlns:inkscape="http://www.inkscape.org/namespaces/inkscape"
   xmlns:sodipodi="http://sodipodi.sourceforge.net/DTD/sodipodi-0.dtd"
   xmlns:xml="http://www.w3.org/XML/1998/namespace"
   xmlns:xlink="http://www.w3.org/1999/xlink"><defs
   id="defs604"><linearGradient
   id="linearGradient912">
      <stop
   style="stop-color:#ffffff;stop-opacity:1.0000000;"
   offset="0.0000000"
   id="stop914" />




















      <stop
   style="stop-color:#a0a2a0;stop-opacity:1.0000000;"
   offset="1.0000000"
   id="stop916" />




















    </linearGradient>









<linearGradient
   id="linearGradient960">
      <stop
   style="stop-color:#7590ae;stop-opacity:1.0000000;"
   offset="0.0000000"
   id="stop962" />




















      <stop
   style="stop-color:#314e6c;stop-opacity:1.0000000;"
   offset="1.0000000"
   id="stop964" />




















    </linearGradient>










<linearGradient
   id="linearGradient954">
      <stop
   style="stop-color:#ffffff;stop-opacity:1.0000000;"
   offset="0.0000000"
   id="stop956" />




















      <stop
   style="stop-color:#14a2da;stop-opacity:1.0000000;"
   offset="1.0000000"
   id="stop958" />




















    </linearGradient>










<linearGradient
   id="linearGradient891">
      <stop
   style="stop-color:#fbffbf;stop-opacity:1.0000000;"
   offset="0.0000000"
   id="stop893" />




















      <stop
   style="stop-color:#ffffff;stop-opacity:0.13008130;"
   offset="1.0000000"
   id="stop895" />




















    </linearGradient>












    <linearGradient
   id="linearGradient622">
      <stop
   style="stop-color:#f8e29d;stop-opacity:0.4471;"
   offset="0"
   id="stop623" />




















      <stop
   style="stop-color:#272d2d;stop-opacity:0.4784;"
   offset="1"
   id="stop624" />




















    </linearGradient>




















    <linearGradient
   id="linearGradient617">
      <stop
   style="stop-color:#ffffff;stop-opacity:1.0000000;"
   offset="0.0000000"
   id="stop618" />




















      <stop
   style="stop-color:#565248;stop-opacity:1.0000000;"
   offset="1.0000000"
   id="stop619" />




















    </linearGradient>




















    <linearGradient
   id="linearGradient613">
      <stop
   style="stop-color:#ffffff;stop-opacity:0.0000000;"
   offset="0.0000000"
   id="stop614" />




















      <stop
   style="stop-color:#898989;stop-opacity:0.45528457;"
   offset="1.0000000"
   id="stop615" />




















    </linearGradient>




















    <linearGradient
   id="linearGradient607">
      <stop
   style="stop-color:#d7d5d5;stop-opacity:1.0000000;"
   offset="0.0000000"
   id="stop608" />




















      <stop
   style="stop-color:#000000;stop-opacity:0.4039;"
   offset="1"
   id="stop609" />




















    </linearGradient>




















    <radialGradient
   xlink:href="#linearGradient891"
   id="radialGradient610"
   cx="0.45522389"
   cy="0.45312500"
   r="0.48908448"
   fx="0.45522389"
   fy="0.45312500" />




















    <linearGradient
   xlink:href="#linearGradient617"
   id="linearGradient612"
   x1="0.39686918"
   y1="0.97534692"
   x2="0.41513580"
   y2="0.62097520"
   gradientUnits="objectBoundingBox" />




















    <radialGradient
   xlink:href="#linearGradient613"
   id="radialGradient616"
   cx="0.21333396"
   cy="0.38369742"
   r="1.7808846"
   fx="0.21333396"
   fy="0.38369742"
   gradientTransform="scale(0.962608,1.038844)"
   gradientUnits="objectBoundingBox" />




















    <linearGradient
   xlink:href="#linearGradient617"
   id="linearGradient621"
   x1="-0.42741936"
   y1="0.90625"
   x2="-0.96774197"
   y2="0.7890625" />




















    <linearGradient
   xlink:href="#linearGradient617"
   id="linearGradient626"
   x1="-0.59104401"
   y1="-0.30253443"
   x2="0.35769230"
   y2="0.85937500" />




















    <linearGradient
   xlink:href="#linearGradient617"
   id="linearGradient687"
   x1="0.61332619"
   y1="1.1830040"
   x2="0.80003732"
   y2="0.65496588" />




















    <linearGradient
   xlink:href="#linearGradient613"
   id="linearGradient742"
   x1="0.24554488"
   y1="0.78758895"
   x2="0.32109740"
   y2="1.0231930"
   gradientTransform="scale(0.962609,1.038844)"
   gradientUnits="objectBoundingBox" />




















  <linearGradient
   xlink:href="#linearGradient912"
   id="linearGradient1039" />





<defs
   id="defs1100"><linearGradient
   id="linearGradient1101">
      <stop
   style="stop-color:#ffffff;stop-opacity:1.0000000;"
   offset="0.0000000"
   id="stop1103" />




















      <stop
   style="stop-color:#a0a2a0;stop-opacity:1.0000000;"
   offset="1.0000000"
   id="stop1105" />




















    </linearGradient>









<linearGradient
   id="linearGradient1108">
      <stop
   style="stop-color:#7590ae;stop-opacity:1.0000000;"
   offset="0.0000000"
   id="stop1110" />




















      <stop
   style="stop-color:#314e6c;stop-opacity:1.0000000;"
   offset="1.0000000"
   id="stop1112" />




















    </linearGradient>










<linearGradient
   id="linearGradient1115">
      <stop
   style="stop-color:#ffffff;stop-opacity:1.0000000;"
   offset="0.0000000"
   id="stop1117" />




















      <stop
   style="stop-color:#14a2da;stop-opacity:1.0000000;"
   offset="1.0000000"
   id="stop1119" />




















    </linearGradient>










<linearGradient
   id="linearGradient1122">
      <stop
   style="stop-color:#fbffbf;stop-opacity:1.0000000;"
   offset="0.0000000"
   id="stop1124" />




















      <stop
   style="stop-color:#ffffff;stop-opacity:0.13008130;"
   offset="1.0000000"
   id="stop1126" />




















    </linearGradient>












    <linearGradient
   id="linearGradient1129">
      <stop
   style="stop-color:#f8e29d;stop-opacity:0.4471;"
   offset="0"
   id="stop1131" />




















      <stop
   style="stop-color:#272d2d;stop-opacity:0.4784;"
   offset="1"
   id="stop1133" />




















    </linearGradient>




















    <linearGradient
   id="linearGradient1136">
      <stop
   style="stop-color:#ffffff;stop-opacity:1.0000000;"
   offset="0.0000000"
   id="stop1138" />




















      <stop
   style="stop-color:#565248;stop-opacity:1.0000000;"
   offset="1.0000000"
   id="stop1140" />




















    </linearGradient>




















    <linearGradient
   id="linearGradient1143">
      <stop
   style="stop-color:#ffffff;stop-opacity:0.0000000;"
   offset="0.0000000"
   id="stop1145" />




















      <stop
   style="stop-color:#ffffff;stop-opacity:0.69918698;"
   offset="1.0000000"
   id="stop1147" />




















    </linearGradient>




















    <linearGradient
   id="linearGradient1150">
      <stop
   style="stop-color:#d7d5d5;stop-opacity:1.0000000;"
   offset="0.0000000"
   id="stop1152" />




















      <stop
   style="stop-color:#000000;stop-opacity:0.4039;"
   offset="1"
   id="stop1154" />




















    </linearGradient>




















    <radialGradient
   xlink:href="#linearGradient891"
   id="radialGradient1157"
   cx="0.45522389"
   cy="0.45312500"
   r="0.48908448"
   fx="0.45522389"
   fy="0.45312500" />




















    <linearGradient
   xlink:href="#linearGradient617"
   id="linearGradient1159"
   x1="0.39686918"
   y1="0.97534692"
   x2="0.41513580"
   y2="0.62097520"
   gradientUnits="objectBoundingBox" />




















    <radialGradient
   xlink:href="#linearGradient613"
   id="radialGradient1161"
   cx="0.21333396"
   cy="0.38369742"
   r="1.7808846"
   fx="0.21333396"
   fy="0.38369742"
   gradientTransform="scale(0.962608,1.038844)"
   gradientUnits="objectBoundingBox" />




















    <linearGradient
   xlink:href="#linearGradient617"
   id="linearGradient1163"
   x1="-0.42741936"
   y1="0.90625"
   x2="-0.96774197"
   y2="0.7890625" />




















    <linearGradient
   xlink:href="#linearGradient617"
   id="linearGradient1165"
   x1="-0.59104401"
   y1="-0.30253443"
   x2="0.35769230"
   y2="0.85937500" />




















    <linearGradient
   xlink:href="#linearGradient617"
   id="linearGradient1167"
   x1="0.61332619"
   y1="1.1830040"
   x2="0.80003732"
   y2="0.65496588" />




















    <linearGradient
   xlink:href="#linearGradient613"
   id="linearGradient1169"
   x1="0.30220908"
   y1="0.79432046"
   x2="0.32109731"
   y2="1.0231928"
   gradientTransform="scale(0.962609,1.038844)"
   gradientUnits="objectBoundingBox" />




















  <linearGradient
   xlink:href="#linearGradient912"
   id="linearGradient1171" />





</defs>

<sodipodi:namedview
   id="namedview1174"
   inkscape:zoom="2.6884790"
   inkscape:cx="22.431804"
   inkscape:cy="-13.996389"
   inkscape:window-width="640"
   inkscape:window-height="501"
   inkscape:window-x="-41"
   inkscape:window-y="209"
   showguides="false"
   snaptoguides="false">
    <sodipodi:guide
   orientation="horizontal"
   position="43.519031"
   id="guide1176" />





  </sodipodi:namedview>

</defs>

<rect
   style="fill:#000006;fill-opacity:0.68292683;fill-rule:evenodd;stroke:none;stroke-width:0.99266949pt;"
   id="rect933"
   width="48.605208"
   height="53.933841"
   ry="1.8602422"
   x="7.8949676"
   y="5.8336849" />



<sodipodi:namedview
   id="base"
   inkscape:zoom="5.3769580"
   inkscape:cx="22.431807"
   inkscape:cy="28.554352"
   inkscape:window-width="640"
   inkscape:window-height="501"
   inkscape:window-x="121"
   inkscape:window-y="142"
   showguides="false"
   snaptoguides="false">
    <sodipodi:guide
   orientation="horizontal"
   position="43.519031"
   id="guide1036" />





  </sodipodi:namedview>



<rect
   style="fill:#ffffff;fill-opacity:1.0000000;fill-rule:evenodd;stroke:#000000;stroke-width:0.48750000;stroke-opacity:1.0000000;stroke-dasharray:none;"
   id="rect932"
   width="45.815529"
   height="52.771473"
   ry="1.8201507"
   x="8.5923881"
   y="5.3687382" />







  

  

  

  

  
  

  




  





  





  





  





  
    <path
   sodipodi:type="arc"
   style="font-size:12.000000;fill:#444040;fill-opacity:0.44200000;fill-rule:evenodd;"
   id="path672"
   d="M 68.473 57.85183 A 23.6299 3.222258 0 1 0 21.2132 57.85183 A 23.6299 3.222258 0 1 0  68.473 57.85183 z"
   sodipodi:cx="44.8431015"
   sodipodi:cy="57.8518295"
   sodipodi:rx="23.6298981"
   sodipodi:ry="3.22225761"
   transform="matrix(0.338364,0.000000,-7.196567e-2,0.471439,30.81545,24.63180)" />













    <path
   sodipodi:type="arc"
   style="font-size:12.000000;fill:url(#linearGradient626);fill-rule:evenodd;stroke:#000000;stroke-width:2.3002000;stroke-opacity:0.95649999;"
   id="path625"
   d="M 58.29114 27.53164 A 19.36709 19.55696 0 1 0 19.55696 27.53164 A 19.36709 19.55696 0 1 0  58.29114 27.53164 z"
   sodipodi:cx="38.9240494"
   sodipodi:cy="27.5316448"
   sodipodi:rx="19.3670883"
   sodipodi:ry="19.556963"
   transform="matrix(-0.242027,-0.112606,-0.131423,0.315789,56.32717,40.72330)" />













    <path
   sodipodi:type="arc"
   style="font-size:12.000000;fill:url(#linearGradient612);fill-rule:evenodd;stroke:#000000;stroke-width:2.0610001;stroke-opacity:0.95649999;"
   id="path605"
   d="M 58.29114 27.53164 A 19.36709 19.55696 0 1 0 19.55696 27.53164 A 19.36709 19.55696 0 1 0  58.29114 27.53164 z"
   sodipodi:cx="38.9240494"
   sodipodi:cy="27.5316448"
   sodipodi:rx="19.3670883"
   sodipodi:ry="19.556963"
   transform="matrix(-0.340737,-0.189425,-0.268847,0.531217,58.99925,34.09440)" />




<path
   sodipodi:type="arc"
   style="font-size:12.000000;fill:url(#radialGradient616);fill-rule:evenodd;stroke:#000000;stroke-width:0.31700000;stroke-opacity:0.97829998;"
   id="path606"
   d="M 58.29114 27.53164 A 19.36709 19.55696 0 1 0 19.55696 27.53164 A 19.36709 19.55696 0 1 0  58.29114 27.53164 z"
   sodipodi:cx="38.9240494"
   sodipodi:cy="27.5316448"
   sodipodi:rx="19.3670883"
   sodipodi:ry="19.556963"
   transform="matrix(-0.274718,-0.166025,-0.227539,0.465590,54.23886,34.50620)" />













    








    <path
   sodipodi:type="arc"
   style="font-size:12.000000;fill-rule:evenodd;stroke-width:1.6350000;"
   id="path686"
   d="M 58.29114 27.53164 A 19.36709 19.55696 0 1 0 19.55696 27.53164 A 19.36709 19.55696 0 1 0  58.29114 27.53164 z"
   sodipodi:cx="38.9240494"
   sodipodi:cy="27.5316448"
   sodipodi:rx="19.3670883"
   sodipodi:ry="19.556963"
   transform="matrix(-9.396908e-2,-0.108055,-0.125818,0.223944,45.94225,39.57170)" />













    <path
   sodipodi:type="arc"
   style="font-size:12.000000;fill:url(#linearGradient687);fill-rule:evenodd;stroke:#3f3b3b;stroke-width:0.77380002;"
   id="path611"
   d="M 58.29114 27.53164 A 19.36709 19.55696 0 1 0 19.55696 27.53164 A 19.36709 19.55696 0 1 0  58.29114 27.53164 z"
   sodipodi:cx="38.9240494"
   sodipodi:cy="27.5316448"
   sodipodi:rx="19.3670883"
   sodipodi:ry="19.556963"
   transform="matrix(-8.791058e-2,-9.734990e-2,-0.117706,0.201758,45.24033,39.48590)" />













    <path
   style="font-size:12.000000;fill-rule:evenodd;stroke:#000000;stroke-width:0.22035471;stroke-linejoin:round;"
   d="M 36.383433,23.214293 L 32.262849,29.201122 C 30.173346,25.034088 28.771119,28.577160 29.410731,30.448165 C 30.148407,31.803480 30.967921,33.091758 32.378968,30.847703 L 35.851114,26.056105 L 37.682094,27.353633 L 39.158240,25.927124 L 36.383433,23.214293 z "
   id="path735"
   sodipodi:nodetypes="cccccccc" />













    <path
   style="font-size:12.000000;fill-rule:evenodd;stroke:#000000;stroke-width:0.073451571;stroke-linejoin:round;"
   d="M 23.635030,41.245064 L 22.955556,48.405863 C 18.513873,46.507730 19.139146,50.100444 20.837470,51.138580 C 22.339667,51.719791 23.884868,52.198599 24.007249,49.597586 L 24.723783,43.757950 L 27.276953,43.614247 L 27.928894,41.600289 L 23.635030,41.245064 z "
   id="path736"
   sodipodi:nodetypes="cccccccc" />













    <path
   style="font-size:12.000000;fill-rule:evenodd;stroke:#000000;stroke-width:0.073429875;stroke-linejoin:round;"
   d="M 19.148033,25.907815 L 21.095939,31.731581 C 16.713155,31.384930 18.498734,34.056577 20.284311,34.435477 C 21.745246,34.504808 23.206175,34.482229 22.394544,32.399098 L 20.941888,27.607750 L 25.265481,26.278146 L 24.615540,24.520882 L 19.148033,25.907815 z "
   id="path734"
   sodipodi:nodetypes="cccccccc" />













    <path
   style="font-size:12.000000;fill-rule:evenodd;stroke:#000000;stroke-width:0.073429823;stroke-linejoin:round;"
   d="M 24.064064,24.634190 L 26.279761,30.457968 C 21.896981,30.111312 23.682556,32.782966 25.468132,33.161866 C 26.929068,33.231198 28.389994,33.208616 27.578364,31.125484 L 25.590141,24.178139 L 24.064064,24.634190 z "
   id="path738"
   sodipodi:nodetypes="cccccc" />













  





  





  
  
  
  
  
  
  
  






  
  
  
  
  
  
  
  
  







  













  




  




  











  
    

    

    








  






  






  






  






  




  




  
  
  
  
  
  
  
  





  
  
  
  
  
  
  
  
  






  

























































    
      
      
      
    
  













<rect
   style="font-size:12;fill:url(#linearGradient742);fill-rule:evenodd;stroke-width:1.295431;stroke-linejoin:round;"
   id="rect809"
   width="35.278572"
   height="46.197449"
   x="17.747970"
   y="10.718132"
   ry="1.5934047" />













  

  

  

  

  
  

  




  





  





  





  





  
    











    











    














    








    











    











    











    











    











    











  





  





  
  
  
  
  
  
  
  






  
  
  
  
  
  
  
  
  







  













  




  




  











  
    

    

    








  






  






  






  






  




  




  
  
  
  
  
  
  
  





  
  
  
  
  
  
  
  
  






  

























































    
      
      
      
    
  










<rect
   style="fill:#ffffff;fill-rule:evenodd;stroke:#78787e;stroke-width:0.80786693;"
   id="rect876"
   width="27.218390"
   height="12.008054"
   ry="1.0259868"
   x="17.077301"
   y="6.8038621" />



<rect
   style="fill:#314e6c;fill-rule:evenodd;stroke:#000000;stroke-width:0.41249999;"
   id="rect1035"
   width="26.499226"
   height="10.404858"
   ry="0.88900727"
   x="17.430546"
   y="7.5413804" />








<path
   style="font-size:10.000000;font-weight:bold;stroke-width:1.0000000pt;font-family:Bitstream Vera Sans;fill:#ffffff;fill-opacity:1.0000000;"
   d="M 40.352400,8.4648609 L 40.352400,9.6123219 L 39.385603,9.6123219 C 39.138207,9.6123219 38.965681,9.6578948 38.868025,9.7490406 C 38.770369,9.8369312 38.721540,9.9915536 38.721540,10.212908 L 38.721540,10.593767 L 40.215681,10.593767 L 40.215681,11.843767 L 38.721540,11.843767 L 38.721540,16.062517 L 36.973494,16.062517 L 36.973494,11.843767 L 36.104353,11.843767 L 36.104353,10.593767 L 36.973494,10.593767 L 36.973494,10.212908 C 36.973494,9.6172047 37.139509,9.1777515 37.471540,8.8945484 C 37.803572,8.6080901 38.317895,8.4648609 39.014509,8.4648609 L 40.352400,8.4648609 z M 36.001814,8.4648609 L 36.001814,9.6123219 L 35.035017,9.6123219 C 34.787621,9.6123219 34.615095,9.6578948 34.517439,9.7490406 C 34.419783,9.8369312 34.370955,9.9915536 34.370955,10.212908 L 34.370955,10.593767 L 35.865095,10.593767 L 35.865095,11.843767 L 34.370955,11.843767 L 34.370955,16.062517 L 32.622908,16.062517 L 32.622908,11.843767 L 31.753767,11.843767 L 31.753767,10.593767 L 32.622908,10.593767 L 32.622908,10.212908 C 32.622908,9.6172047 32.788923,9.1777515 33.120955,8.8945484 C 33.452986,8.6080901 33.967309,8.4648609 34.663923,8.4648609 L 36.001814,8.4648609 z M 28.975447,10.593767 L 30.723494,10.593767 L 30.723494,16.062517 L 28.975447,16.062517 L 28.975447,10.593767 z M 28.975447,8.4648609 L 30.723494,8.4648609 L 30.723494,9.8906422 L 28.975447,9.8906422 L 28.975447,8.4648609 z M 24.678572,13.601580 C 24.313988,13.601580 24.038923,13.663429 23.853376,13.787127 C 23.671085,13.910824 23.579939,14.093116 23.579939,14.334002 C 23.579939,14.555356 23.653181,14.729509 23.799665,14.856462 C 23.949405,14.980160 24.156111,15.042009 24.419783,15.042009 C 24.748559,15.042009 25.025251,14.924822 25.249861,14.690447 C 25.474470,14.452817 25.586775,14.156593 25.586775,13.801775 L 25.586775,13.601580 L 24.678572,13.601580 z M 27.349470,12.942400 L 27.349470,16.062517 L 25.586775,16.062517 L 25.586775,15.251970 C 25.352400,15.584002 25.088728,15.826515 24.795759,15.979509 C 24.502790,16.129249 24.146345,16.204119 23.726423,16.204119 C 23.160017,16.204119 22.699405,16.039731 22.344587,15.710955 C 21.993025,15.378923 21.817244,14.949236 21.817244,14.421892 C 21.817244,13.780616 22.036970,13.310239 22.476423,13.010759 C 22.919132,12.711280 23.612491,12.561541 24.556501,12.561541 L 25.586775,12.561541 L 25.586775,12.424822 C 25.586775,12.148129 25.477725,11.946306 25.259626,11.819353 C 25.041527,11.689145 24.701358,11.624041 24.239119,11.624041 C 23.864770,11.624041 23.516462,11.661475 23.194197,11.736345 C 22.871931,11.811215 22.572452,11.923520 22.295759,12.073259 L 22.295759,10.740252 C 22.670108,10.649106 23.046085,10.580746 23.423689,10.535173 C 23.801293,10.486345 24.178897,10.461931 24.556501,10.461931 C 25.542830,10.461931 26.254093,10.657244 26.690290,11.047869 C 27.129744,11.435239 27.349470,12.066749 27.349470,12.942400 z "
   id="path1023" />
</svg>
