<?xml version="1.0" encoding="UTF-8" standalone="no"?>
<!DOCTYPE svg PUBLIC "-//W3C//DTD SVG 20010904//EN"
"http://www.w3.org/TR/2001/REC-SVG-20010904/DTD/svg10.dtd">
<!-- Created with Inkscape (http://www.inkscape.org/) -->
<svg
   id="svg1"
   sodipodi:version="0.32"
   inkscape:version="0.38.1"
   width="48.000000pt"
   height="48.000000pt"
   sodipodi:docbase="/home/krosstok/Desktop/Suede/scalable/mimetypes"
   sodipodi:docname="gnome-mime-application-x-bzip.svg"
   xmlns="http://www.w3.org/2000/svg"
   xmlns:inkscape="http://www.inkscape.org/namespaces/inkscape"
   xmlns:sodipodi="http://sodipodi.sourceforge.net/DTD/sodipodi-0.dtd"
   xmlns:xlink="http://www.w3.org/1999/xlink">
  <defs
     id="defs3">
    <radialGradient
       id="aigrd2"
       cx="13.2129"
       cy="6.8301"
       r="8.4458"
       fx="13.2129"
       fy="6.8301"
       gradientUnits="userSpaceOnUse">
      <stop
         offset="0.0000000"
         style="stop-color:#f3daa6;stop-opacity:1.0000000;"
         id="stop888" />
      <stop
         offset="1.0000000"
         style="stop-color:#bfa673;stop-opacity:1.0000000;"
         id="stop890" />
    </radialGradient>
    <linearGradient
       id="linearGradient920">
      <stop
         offset="0.0000000"
         style="stop-color:#bfa673;stop-opacity:1.0000000;"
         id="stop922" />
      <stop
         offset="1.0000000"
         style="stop-color:#f0f0f0;stop-opacity:1.0000000;"
         id="stop921" />
    </linearGradient>
    <radialGradient
       id="radialGradient862"
       cx="13.2129"
       cy="6.8301"
       r="8.4458"
       fx="13.2129"
       fy="6.8301"
       gradientUnits="userSpaceOnUse">
      <stop
         offset="0.0000000"
         style="stop-color:#dfc787;stop-opacity:1.0000000;"
         id="stop863" />
      <stop
         offset="1.0000000"
         style="stop-color:#b7a26b;stop-opacity:1.0000000;"
         id="stop864" />
    </radialGradient>
    <linearGradient
       id="linearGradient848">
      <stop
         style="stop-color:#000000;stop-opacity:1.0000000;"
         offset="0.0000000"
         id="stop849" />
      <stop
         style="stop-color:#ffffff;stop-opacity:0.12171052;"
         offset="1.0000000"
         id="stop850" />
    </linearGradient>
    <linearGradient
       id="linearGradient892">
      <stop
         style="stop-color:#bab5a8;stop-opacity:1.0000000;"
         offset="0.0000000"
         id="stop893" />
      <stop
         style="stop-color:#7e7f7e;stop-opacity:1.0000000;"
         offset="1.0000000"
         id="stop894" />
    </linearGradient>
    <linearGradient
       id="linearGradient836">
      <stop
         style="stop-color:#f3f3e7;stop-opacity:0.19166666;"
         offset="0.0000000"
         id="stop837" />
      <stop
         style="stop-color:#b4b4b4;stop-opacity:0.65833336;"
         offset="1.0000000"
         id="stop838" />
    </linearGradient>
    <linearGradient
       xlink:href="#aigrd2"
       id="linearGradient896"
       x1="40.772385"
       y1="37.199493"
       x2="-4.3753457"
       y2="32.670872"
       gradientUnits="userSpaceOnUse"
       gradientTransform="scale(0.755985,1.322778)" />
    <radialGradient
       xlink:href="#linearGradient848"
       id="radialGradient847"
       cx="0.47340518"
       cy="0.40768251"
       r="0.69920045"
       fx="0.47340518"
       fy="0.40768251" />
    <radialGradient
       id="aigrd3"
       cx="8.1943"
       cy="11.7568"
       r="8.4446"
       fx="8.1943"
       fy="11.7568"
       gradientUnits="userSpaceOnUse">
      <stop
         offset="0"
         style="stop-color:#FFFFFF"
         id="stop897" />
      <stop
         offset="1"
         style="stop-color:#F0E1BD"
         id="stop899" />
    </radialGradient>
    <linearGradient
       xlink:href="#aigrd2"
       id="linearGradient839"
       x1="1.0767227"
       y1="0.35356212"
       x2="0.55945599"
       y2="0.36037317"
       gradientUnits="objectBoundingBox" />
    <linearGradient
       xlink:href="#aigrd2"
       id="linearGradient843"
       x1="14.013419"
       y1="53.504665"
       x2="22.458817"
       y2="42.296951"
       gradientUnits="userSpaceOnUse"
       gradientTransform="scale(1.953449,0.511915)" />
    <linearGradient
       xlink:href="#aigrd2"
       id="linearGradient842"
       x1="12.437087"
       y1="48.439602"
       x2="15.138050"
       y2="34.593231"
       gradientUnits="userSpaceOnUse"
       gradientTransform="scale(1.953449,0.511915)" />
    <linearGradient
       xlink:href="#linearGradient920"
       id="linearGradient844"
       x1="0.94354844"
       y1="0.94531238"
       x2="-0.88709682"
       y2="-0.89062488" />
    <defs
       id="defs604">
      <linearGradient
         id="linearGradient1287">
        <stop
           offset="0.0000000"
           style="stop-color:#ffffff;stop-opacity:1.0000000;"
           id="stop1289" />
        <stop
           offset="1.0000000"
           style="stop-color:#c2bfbf;stop-opacity:0.99607843;"
           id="stop1288" />
      </linearGradient>
      <linearGradient
         id="linearGradient898">
        <stop
           style="stop-color:#000000;stop-opacity:0.74166667;"
           offset="0.0000000"
           id="stop900" />
        <stop
           style="stop-color:#000000;stop-opacity:0.0000000;"
           offset="1.0000000"
           id="stop902" />
      </linearGradient>
      <linearGradient
         id="linearGradient888">
        <stop
           style="stop-color:#3d3d3d;stop-opacity:0.51666665;"
           offset="0.0000000"
           id="stop878" />
        <stop
           style="stop-color:#ffffff;stop-opacity:0.55833334;"
           offset="1.0000000"
           id="stop892" />
      </linearGradient>
      <linearGradient
         id="linearGradient672">
        <stop
           style="stop-color:#d9dfd5;stop-opacity:1;"
           offset="0"
           id="stop673" />
        <stop
           style="stop-color:#ffffff;stop-opacity:1;"
           offset="1"
           id="stop674" />
      </linearGradient>
      <linearGradient
         id="linearGradient616">
        <stop
           style="stop-color:#bfa673;stop-opacity:1.0000000;"
           offset="0.0000000"
           id="stop617" />
        <stop
           style="stop-color:#f0f0f0;stop-opacity:1.0000000;"
           offset="1.0000000"
           id="stop618" />
      </linearGradient>
      <linearGradient
         xlink:href="#linearGradient616"
         id="linearGradient619"
         x1="0.41926342"
         y1="0.18983676"
         x2="0.91678953"
         y2="1.50409484"
         gradientUnits="objectBoundingBox"
         gradientTransform="scale(0.730143,1.369594)" />
      <radialGradient
         xlink:href="#linearGradient616"
         id="radialGradient620"
         cx="83.7103271"
         cy="144.164276"
         r="305.230225"
         fx="83.7103271"
         fy="144.164276"
         gradientTransform="scale(1.257427,0.795275)" />
      <linearGradient
         xlink:href="#linearGradient616"
         id="linearGradient621"
         x1="36.107239"
         y1="44.179695"
         x2="-1.1123854"
         y2="20.212824"
         gradientUnits="userSpaceOnUse"
         gradientTransform="scale(1.084598,0.922001)" />
      <radialGradient
         xlink:href="#linearGradient898"
         id="radialGradient632"
         cx="0.33214286"
         cy="0.62251657"
         r="0.32185856"
         fx="0.33214286"
         fy="0.62251657" />
      <radialGradient
         xlink:href="#linearGradient616"
         id="radialGradient634"
         cx="1.1638796"
         cy="0.83534139"
         r="1.3709123"
         fx="1.1638796"
         fy="0.83534139" />
      <linearGradient
         xlink:href="#linearGradient672"
         id="linearGradient676"
         x1="15.6870308"
         y1="18.9490681"
         x2="56.4882126"
         y2="55.0553169" />
      <linearGradient
         xlink:href="#linearGradient672"
         id="linearGradient740"
         x1="40.1527023"
         y1="35.1880341"
         x2="36.5803947"
         y2="18.5065861"
         gradientUnits="userSpaceOnUse" />
      <linearGradient
         xlink:href="#linearGradient888"
         id="linearGradient878"
         x1="1.0816108"
         y1="0.51442021"
         x2="-0.36504364"
         y2="0.49327964"
         gradientUnits="objectBoundingBox"
         gradientTransform="scale(0.901997,1.108651)"
         spreadMethod="pad" />
      <linearGradient
         xlink:href="#linearGradient888"
         id="linearGradient913"
         x1="0.51481462"
         y1="0.0077967593"
         x2="0.51481462"
         y2="0.54685849"
         spreadMethod="reflect"
         gradientUnits="objectBoundingBox" />
      <defs
         id="defs907">
        <linearGradient
           id="linearGradient622">
          <stop
             style="stop-color:#f8e29d;stop-opacity:0.4471;"
             offset="0"
             id="stop623" />
          <stop
             style="stop-color:#272d2d;stop-opacity:0.4784;"
             offset="1"
             id="stop624" />
        </linearGradient>
        <linearGradient
           id="linearGradient617">
          <stop
             style="stop-color:#ffffff;stop-opacity:1;"
             offset="0"
             id="stop918" />
          <stop
             style="stop-color:#000000;stop-opacity:1;"
             offset="1"
             id="stop619" />
        </linearGradient>
        <linearGradient
           id="linearGradient613">
          <stop
             style="stop-color:#ffffff;stop-opacity:0.6235;"
             offset="0"
             id="stop614" />
          <stop
             style="stop-color:#5d6567;stop-opacity:1;"
             offset="1"
             id="stop615" />
        </linearGradient>
        <linearGradient
           id="linearGradient607">
          <stop
             style="stop-color:#d7d5d5;stop-opacity:1;"
             offset="0"
             id="stop608" />
          <stop
             style="stop-color:#000000;stop-opacity:0.4039;"
             offset="1"
             id="stop609" />
        </linearGradient>
        <radialGradient
           xlink:href="#linearGradient622"
           id="radialGradient610" />
        <linearGradient
           xlink:href="#linearGradient617"
           id="linearGradient612"
           x1="-0.26619732"
           y1="-0.2180935"
           x2="1.07717049"
           y2="1.20107734"
           gradientTransform="matrix(1,-1.054768e-5,-2.212897e-8,1,6.882726e-9,-4.703892e-9)" />
        <radialGradient
           xlink:href="#linearGradient613"
           id="radialGradient616"
           cx="0.99938017"
           cy="1.1736089"
           r="1.10986722"
           fx="0.99938017"
           fy="1.1736089"
           gradientTransform="matrix(1.000001,1.020568e-7,2.121713e-5,0.999999,3.963748e-8,-1.000117e-8)" />
        <linearGradient
           xlink:href="#linearGradient617"
           id="linearGradient943"
           x1="-0.42741936"
           y1="0.90625"
           x2="-0.96774197"
           y2="0.7890625" />
        <linearGradient
           xlink:href="#linearGradient617"
           id="linearGradient626"
           x1="1.2993300"
           y1="1.1733478"
           x2="0.33747798"
           y2="0.12942465"
           gradientTransform="matrix(0.999728,-1.063720e-5,-1.320046e-7,1.000272,-3.469447e-16,-1.358505e-16)"
           gradientUnits="objectBoundingBox" />
        <linearGradient
           xlink:href="#linearGradient607"
           id="linearGradient687"
           x1="1.22036803"
           y1="1.05203915"
           x2="-0.73790783"
           y2="-7.41785839e-2"
           gradientTransform="matrix(1,2.268336e-6,-1.975559e-5,1,5.713033e-8,3.856326e-8)" />
        <linearGradient
           xlink:href="#linearGradient622"
           id="linearGradient742" />
      </defs>
      <sodipodi:namedview
         id="namedview952"
         inkscape:zoom="5.3769580"
         inkscape:cx="24.865590"
         inkscape:cy="18.133934"
         inkscape:window-width="640"
         inkscape:window-height="497"
         inkscape:window-x="311"
         inkscape:window-y="96" />
      <sodipodi:namedview
         id="namedview1083"
         inkscape:zoom="4.6552648"
         inkscape:cx="23.878391"
         inkscape:cy="9.2081570"
         inkscape:window-width="719"
         inkscape:window-height="501"
         inkscape:window-x="613"
         inkscape:window-y="341" />
      <defs
         id="defs964">
        <linearGradient
           id="linearGradient1068">
          <stop
             offset="0.0000000"
             style="stop-color:#d2d2d2;stop-opacity:1.0000000;"
             id="stop1070" />
          <stop
             offset="1.0000000"
             style="stop-color:#ffffff;stop-opacity:1.0000000;"
             id="stop1069" />
        </linearGradient>
        <linearGradient
           id="linearGradient1065"
           x1="0.0000000"
           y1="0.50000000"
           x2="1.0000000"
           y2="0.50000000"
           gradientUnits="objectBoundingBox"
           spreadMethod="pad"
           xlink:href="#linearGradient1287" />
        <linearGradient
           id="linearGradient1060">
          <stop
             offset="0.0000000"
             style="stop-color:#ffffff;stop-opacity:1.0000000;"
             id="stop1063" />
          <stop
             offset="0.50000000"
             style="stop-color:#acabaa;stop-opacity:0.99607843;"
             id="stop1062" />
          <stop
             offset="1.0000000"
             style="stop-color:#5a5856;stop-opacity:0.99607843;"
             id="stop1061" />
        </linearGradient>
        <linearGradient
           id="linearGradient645">
          <stop
             style="stop-color:#aca597;stop-opacity:1.0000000;"
             offset="0.0000000"
             id="stop646" />
          <stop
             style="stop-color:#ffffff;stop-opacity:1.0000000;"
             offset="1.0000000"
             id="stop647" />
        </linearGradient>
        <linearGradient
           id="linearGradient593">
          <stop
             style="stop-color:#478acf;stop-opacity:1.0000000;"
             offset="0.0000000"
             id="stop594" />
          <stop
             style="stop-color:#65c6f7;stop-opacity:1.0000000;"
             offset="1.0000000"
             id="stop595" />
        </linearGradient>
        <linearGradient
           id="linearGradient574">
          <stop
             style="stop-color:#85ad92;stop-opacity:1.0000;"
             offset="0"
             id="stop575" />
          <stop
             style="stop-color:#559db2;stop-opacity:0.7725;"
             offset="1"
             id="stop576" />
        </linearGradient>
        <linearGradient
           id="linearGradient570">
          <stop
             style="stop-color:#000000;stop-opacity:1.0000000;"
             offset="0.0000000"
             id="stop571" />
          <stop
             style="stop-color:#ffffff;stop-opacity:0.0000000;"
             offset="1.0000000"
             id="stop572" />
        </linearGradient>
        <linearGradient
           id="linearGradient573"
           xlink:href="#linearGradient1060"
           x1="0.61777318"
           y1="-0.78747839"
           x2="0.66039586"
           y2="-0.033485886" />
        <linearGradient
           id="linearGradient1213"
           xlink:href="#linearGradient1068"
           x1="1.0192926"
           y1="0.99115056"
           x2="0.49839231"
           y2="0.41592926" />
        <radialGradient
           id="radialGradient581"
           xlink:href="#linearGradient570"
           cx="0.78290993"
           cy="0.62068933"
           r="0.83833146"
           fx="0.78290993"
           fy="0.62068933" />
        <linearGradient
           id="linearGradient580"
           xlink:href="#linearGradient1068"
           x1="1.0723866"
           y1="0.85896289"
           x2="0.85338652"
           y2="0.42466211" />
        <linearGradient
           xlink:href="#linearGradient1060"
           id="linearGradient901"
           x1="-0.12911281"
           y1="0.028423717"
           x2="0.084990859"
           y2="0.11342888" />
        <linearGradient
           xlink:href="#linearGradient570"
           id="linearGradient902"
           x1="0.25850341"
           y1="0.19907406"
           x2="0.55442178"
           y2="0.93055558" />
        <linearGradient
           xlink:href="#linearGradient1068"
           id="linearGradient916"
           x1="0.14831461"
           y1="-1.6875000"
           x2="0.43370786"
           y2="1.8125000" />
        <defs
           id="defs890">
          <linearGradient
             id="linearGradient922"
             x1="0.0000000"
             y1="0.50000000"
             x2="1.0000000"
             y2="0.50000000"
             gradientUnits="objectBoundingBox"
             spreadMethod="pad"
             xlink:href="#linearGradient1065" />
          <linearGradient
             id="linearGradient908"
             x1="0.0000000"
             y1="0.50000000"
             x2="1.0000000"
             y2="0.50000000"
             gradientUnits="objectBoundingBox"
             spreadMethod="pad"
             xlink:href="#linearGradient1060" />
          <linearGradient
             id="linearGradient894"
             x1="0.0000000"
             y1="0.50000000"
             x2="1.0000000"
             y2="0.50000000"
             gradientUnits="objectBoundingBox"
             spreadMethod="pad"
             xlink:href="#linearGradient1068" />
          <linearGradient
             xlink:href="#linearGradient894"
             id="linearGradient897"
             x1="0.59550560"
             y1="-0.33587787"
             x2="0.61348313"
             y2="1.1908396" />
          <linearGradient
             xlink:href="#linearGradient894"
             id="linearGradient1119"
             x1="0.96449792"
             y1="1.0278323"
             x2="0.46738392"
             y2="0.21800731" />
          <linearGradient
             xlink:href="#linearGradient908"
             id="linearGradient907"
             x1="0.57078654"
             y1="2.3770492"
             x2="0.33258426"
             y2="0.49180329" />
          <linearGradient
             xlink:href="#linearGradient922"
             id="linearGradient921"
             x1="0.47058824"
             y1="0.15384616"
             x2="0.46547315"
             y2="0.98380566" />
          <linearGradient
             xlink:href="#linearGradient922"
             id="linearGradient948" />
          <defs
             id="defs987">
            <linearGradient
               id="linearGradient855"
               x1="0.0000000"
               y1="0.50000000"
               x2="1.0000000"
               y2="0.50000000"
               gradientUnits="objectBoundingBox"
               spreadMethod="pad"
               xlink:href="#linearGradient908" />
            <linearGradient
               id="linearGradient1188"
               x1="0.0000000"
               y1="0.50000000"
               x2="1.0000000"
               y2="0.50000000"
               gradientUnits="objectBoundingBox"
               spreadMethod="pad"
               xlink:href="#linearGradient922" />
            <linearGradient
               id="linearGradient831">
              <stop
                 style="stop-color:#94897f;stop-opacity:1.0000000;"
                 offset="0.0000000"
                 id="stop832" />
              <stop
                 style="stop-color:#fff5fe;stop-opacity:1.0000000;"
                 offset="1.0000000"
                 id="stop833" />
            </linearGradient>
            <linearGradient
               xlink:href="#linearGradient1188"
               id="linearGradient834"
               x1="0.87550199"
               y1="0.34817815"
               x2="-0.29317269"
               y2="0.93522269"
               gradientUnits="objectBoundingBox"
               spreadMethod="pad" />
            <radialGradient
               xlink:href="#linearGradient1188"
               id="radialGradient835"
               r="0.55628061"
               fy="0.28125"
               fx="0.59090906"
               cy="0.28125"
               cx="0.59090906"
               spreadMethod="pad" />
            <linearGradient
               xlink:href="#linearGradient1188"
               id="linearGradient893"
               x1="0.12793733"
               y1="0.76923078"
               x2="0.49608356"
               y2="0.70850199" />
            <linearGradient
               xlink:href="#linearGradient855"
               id="linearGradient625"
               x1="0.035955057"
               y1="1.0276498"
               x2="0.053932585"
               y2="-0.35944700" />
            <linearGradient
               xlink:href="#linearGradient1188"
               id="linearGradient627"
               x1="1.2826855"
               y1="0.12550607"
               x2="-0.15547703"
               y2="0.96356273" />
            <radialGradient
               xlink:href="#linearGradient1188"
               id="radialGradient628"
               r="1.59822237"
               fy="0.4866707"
               fx="0.36789617"
               cy="0.4866707"
               cx="0.36789617"
               gradientTransform="scale(0.877379,1.139758)" />
            <linearGradient
               xlink:href="#linearGradient1188"
               id="linearGradient628"
               x1="0.76923078"
               y1="0.14979757"
               x2="0.41909814"
               y2="0.73279351" />
          </defs>
          <sodipodi:namedview
             id="namedview898"
             pagecolor="#ffffff"
             bordercolor="#666666"
             borderopacity="1.0"
             inkscape:pageopacity="0.0"
             inkscape:pageshadow="2"
             inkscape:zoom="3.4732669"
             inkscape:cx="50.051177"
             inkscape:cy="18.096983"
             inkscape:window-width="1022"
             inkscape:window-height="670"
             showguides="false"
             snaptoguides="false"
             showgrid="false"
             snaptogrid="false"
             inkscape:window-x="0"
             inkscape:window-y="25">
            <sodipodi:guide
               orientation="vertical"
               position="28.705556"
               id="guide879" />
            <sodipodi:guide
               orientation="horizontal"
               position="30.130655"
               id="guide880" />
          </sodipodi:namedview>
        </defs>
        <sodipodi:namedview
           id="namedview1003"
           pagecolor="#ffffff"
           bordercolor="#666666"
           borderopacity="1.0"
           inkscape:pageopacity="0.0"
           inkscape:pageshadow="2"
           inkscape:zoom="1.3368738"
           inkscape:cx="24.541029"
           inkscape:cy="14.368596"
           inkscape:window-width="640"
           inkscape:window-height="499"
           showguides="true"
           snaptoguides="true"
           inkscape:window-x="138"
           inkscape:window-y="169" />
        <linearGradient
           xlink:href="#linearGradient1060"
           id="linearGradient1304"
           x1="-0.66086954"
           y1="0.46460176"
           x2="0.97391301"
           y2="0.51769912" />
        <linearGradient
           xlink:href="#linearGradient1060"
           id="linearGradient1322"
           x1="0.018475750"
           y1="0.20707071"
           x2="0.16859123"
           y2="0.76767677" />
        <linearGradient
           xlink:href="#linearGradient1065"
           id="linearGradient909"
           x1="-0.23333344"
           y1="0.19911495"
           x2="1.1666667"
           y2="1.0796462" />
        <linearGradient
           xlink:href="#linearGradient570"
           id="linearGradient977"
           x1="0.25510204"
           y1="0.21759260"
           x2="0.67687070"
           y2="0.79166681" />
        <linearGradient
           xlink:href="#linearGradient1065"
           id="linearGradient1043"
           x1="-0.060439561"
           y1="0.37610620"
           x2="0.093406595"
           y2="0.37610620" />
        <linearGradient
           xlink:href="#linearGradient1065"
           id="linearGradient925"
           x1="0.52674896"
           y1="0.083333336"
           x2="0.65226340"
           y2="0.56666666" />
      </defs>
    </defs>
    <sodipodi:namedview
       id="namedview1096"
       inkscape:zoom="11.353430"
       inkscape:cx="24.000021"
       inkscape:cy="25.063334"
       inkscape:window-width="912"
       inkscape:window-height="762"
       inkscape:window-x="293"
       inkscape:window-y="26"
       showguides="true"
       snaptoguides="true">
      <sodipodi:guide
         orientation="vertical"
         position="72.263738"
         id="guide627" />
    </sodipodi:namedview>
  </defs>
  <sodipodi:namedview
     id="base"
     pagecolor="#ffffff"
     bordercolor="#666666"
     borderopacity="1.0"
     inkscape:pageopacity="0.0"
     inkscape:pageshadow="2"
     inkscape:zoom="5.3622264"
     inkscape:cx="24.000026"
     inkscape:cy="31.123610"
     inkscape:window-width="601"
     inkscape:window-height="515"
     inkscape:window-x="97"
     inkscape:window-y="154"
     showguides="true"
     snaptoguides="true" />
  <g
     id="Layer_x0020_4"
     style="stroke:#000000;"
     transform="translate(-21.88544,39.19021)">
    <path
       style="fill:none;stroke:none;"
       d="M24,24H0V0h24v24z"
       id="path907" />
  </g>
  <path
     style="fill-opacity:0.67479676;fill-rule:evenodd;stroke-width:0.64973855;"
     d="M 28.205272,15.682664 L 5.8357776,19.717168 L 6.2993944,49.933634 C 11.138402,53.039187 18.183798,55.787464 28.784794,57.184457 C 34.577055,55.719972 39.069392,53.398964 43.707450,50.949313 L 55.703527,50.949313 C 56.226720,50.949313 56.659734,50.549711 56.659734,50.046488 L 56.659734,38.037003 C 56.659734,37.533782 56.226720,37.134178 55.703527,37.134178 L 51.969324,36.852487 L 52.516163,21.353541 C 46.178085,18.775442 37.716156,16.043201 28.205272,15.682664 z "
     id="path1152"
     sodipodi:nodetypes="cccccccccccc" />
  <path
     style="fill:url(#radialGradient847);fill-opacity:0.75000000;fill-rule:evenodd;stroke-width:3.0000000pt;"
     d="M 72.414177,-5.1262381 C 70.057814,-1.1797111 53.002734,4.4570149 42.530354,3.5067369 C 32.057973,2.5564619 27.131900,-3.3407471 29.488263,-7.2872731 C 31.844627,-11.233798 42.256363,-13.665540 52.728740,-12.715263 C 63.201122,-11.764986 74.770543,-9.0727641 72.414177,-5.1262381 z "
     id="path1153"
     sodipodi:nodetypes="ccccc"
     transform="translate(-13.52051,55.24757)" />
  <path
     style="fill:url(#linearGradient839);fill-rule:evenodd;stroke:#000000;stroke-width:1.0025337;stroke-linejoin:round;stroke-dasharray:none;"
     d="M 4.9665358,16.812289 L 5.4246414,49.137025 C 10.112740,52.457307 16.926250,55.380584 27.196651,56.874171 C 35.764555,54.483569 41.003878,50.110048 49.098883,46.059821 L 50.197443,18.555196 C 44.057020,15.798839 35.865780,12.903106 26.651498,12.517640 L 4.9665358,16.812289 z "
     id="path1155"
     sodipodi:nodetypes="ccccccc"
     transform="matrix(0.973859,0.000000,0.000000,0.874157,1.777489,5.644180)" />
  <path
     style="fill:url(#linearGradient896);fill-opacity:0.75000000;fill-rule:evenodd;stroke-width:1.0000000pt;"
     d="M 5.8385210,18.506042 L 6.5837021,49.072215 L 26.069560,55.197034 L 26.807894,25.393845 L 5.8385210,18.506042 z "
     id="path1156"
     sodipodi:nodetypes="ccccc"
     transform="matrix(0.973859,0.000000,0.000000,0.874157,1.777489,5.644180)" />
  <path
     style="fill:url(#linearGradient843);fill-opacity:0.75000000;fill-rule:evenodd;stroke-width:1.0000000pt;stroke:none;stroke-opacity:1.0000000;"
     d="M 27.627245,13.292238 L 5.3276430,18.056903 L 27.030096,24.439182 L 48.821446,18.529327 L 27.627245,13.292238 z "
     id="path1157"
     sodipodi:nodetypes="ccccc"
     transform="matrix(0.973859,0.000000,0.000000,0.874157,1.777489,5.644180)" />
  <path
     style="fill:url(#linearGradient842);fill-opacity:0.75000000;fill-rule:evenodd;stroke-width:0.0000000;stroke:none;stroke-opacity:1.0000000;stroke-dasharray:none;"
     d="M 28.922651,16.797459 L 7.4320862,20.964368 L 17.748855,23.511180 L 37.433975,18.665876 L 28.922651,16.797459 z "
     id="path987"
     sodipodi:nodetypes="ccccc" />
  <g
     id="g1325"
     transform="translate(-2.412440,8.314629e-2)">
    <rect
       style="fill:#ffffff;fill-rule:evenodd;stroke:#000000;stroke-width:1.0406502;"
       id="rect1298"
       width="29.856243"
       height="12.775887"
       ry="1.0915916"
       x="26.862481"
       y="41.911829"
       transform="matrix(0.933048,0.000000,0.000000,0.921692,5.146874,-0.685402)" />
    <rect
       style="fill:#3b629a;fill-rule:evenodd;stroke-width:0.90870070;"
       id="rect1299"
       width="28.400709"
       height="11.288867"
       ry="0.96453834"
       x="27.957187"
       y="42.964153"
       transform="matrix(0.933048,0.000000,0.000000,0.921692,5.146874,-0.685402)" />
    <path
       style="font-size:10.000000;font-weight:bold;fill:#ffffff;stroke-width:1.0000000pt;font-family:Bitstream Vera Sans;"
       d="M 50.359966,46.263222 L 53.567974,46.263222 L 53.567974,47.645058 L 48.270123,47.645058 L 48.270123,46.263222 L 50.931255,43.914589 C 51.168886,43.699745 51.344667,43.489784 51.458599,43.284706 C 51.572531,43.079628 51.629498,42.866412 51.629498,42.645058 C 51.629498,42.303261 51.513938,42.028196 51.282818,41.819862 C 51.054953,41.611529 50.750591,41.507362 50.369732,41.507362 C 50.076763,41.507362 49.756125,41.570839 49.407818,41.697792 C 49.059511,41.821490 48.686789,42.007037 48.289654,42.254433 L 48.289654,40.652870 C 48.712831,40.512896 49.131125,40.407102 49.544537,40.335487 C 49.957948,40.260618 50.363221,40.223183 50.760357,40.223183 C 51.632753,40.223183 52.309836,40.415240 52.791607,40.799355 C 53.276633,41.183469 53.519146,41.718951 53.519146,42.405800 C 53.519146,42.802935 53.416607,43.174029 53.211529,43.519081 C 53.006451,43.860878 52.575136,44.319862 51.917583,44.896034 L 50.359966,46.263222 z M 42.230083,42.176308 L 47.000591,42.176308 L 47.000591,43.397011 L 44.119732,46.395058 L 47.000591,46.395058 L 47.000591,47.645058 L 42.108013,47.645058 L 42.108013,46.424355 L 44.988873,43.426308 L 42.230083,43.426308 L 42.230083,42.176308 z M 38.250591,46.517128 C 38.624940,46.517128 38.909771,46.380409 39.105083,46.106972 C 39.303651,45.833534 39.402935,45.436399 39.402935,44.915565 C 39.402935,44.394732 39.303651,43.997597 39.105083,43.724159 C 38.909771,43.450722 38.624940,43.314003 38.250591,43.314003 C 37.876242,43.314003 37.588156,43.452349 37.386333,43.729042 C 37.187766,44.002480 37.088482,44.397987 37.088482,44.915565 C 37.088482,45.433144 37.187766,45.830279 37.386333,46.106972 C 37.588156,46.380409 37.876242,46.517128 38.250591,46.517128 z M 37.088482,42.977089 C 37.329367,42.658079 37.596294,42.423704 37.889263,42.273964 C 38.182232,42.120969 38.519146,42.044472 38.900005,42.044472 C 39.573833,42.044472 40.127219,42.313026 40.560162,42.850136 C 40.993104,43.383990 41.209576,44.072467 41.209576,44.915565 C 41.209576,45.758664 40.993104,46.448769 40.560162,46.985878 C 40.127219,47.519732 39.573833,47.786659 38.900005,47.786659 C 38.519146,47.786659 38.182232,47.711789 37.889263,47.562050 C 37.596294,47.409055 37.329367,47.173052 37.088482,46.854042 L 37.088482,47.645058 L 35.340435,47.645058 L 35.340435,40.047401 L 37.088482,40.047401 L 37.088482,42.977089 z "
       id="path982" />
  </g>
</svg>
