<?xml version="1.0" encoding="UTF-8" standalone="no"?>
<!DOCTYPE svg PUBLIC "-//W3C//DTD SVG 20010904//EN"
"http://www.w3.org/TR/2001/REC-SVG-20010904/DTD/svg10.dtd">
<!-- Created with Sodipodi ("http://www.sodipodi.com/") -->
<svg
   id="svg602"
   sodipodi:version="0.32"
   width="48pt"
   height="48pt"
   xml:space="preserve"
   sodipodi:docbase="/home/krosstok/Desktop/Suede/scalable/mimetypes"
   sodipodi:docname="gnome-mime-application-pdf.svg"
   inkscape:version="0.38.1"
   xmlns="http://www.w3.org/2000/svg"
   xmlns:inkscape="http://www.inkscape.org/namespaces/inkscape"
   xmlns:sodipodi="http://sodipodi.sourceforge.net/DTD/sodipodi-0.dtd"
   xmlns:xml="http://www.w3.org/XML/1998/namespace"
   xmlns:xlink="http://www.w3.org/1999/xlink"><defs
   id="defs604"><linearGradient
   id="linearGradient912">
      <stop
   style="stop-color:#ffffff;stop-opacity:1.0000000;"
   offset="0.0000000"
   id="stop914" />




















      <stop
   style="stop-color:#a0a2a0;stop-opacity:1.0000000;"
   offset="1.0000000"
   id="stop916" />




















    </linearGradient>









<linearGradient
   id="linearGradient960">
      <stop
   style="stop-color:#7590ae;stop-opacity:1.0000000;"
   offset="0.0000000"
   id="stop962" />




















      <stop
   style="stop-color:#314e6c;stop-opacity:1.0000000;"
   offset="1.0000000"
   id="stop964" />




















    </linearGradient>










<linearGradient
   id="linearGradient954">
      <stop
   style="stop-color:#ffffff;stop-opacity:1.0000000;"
   offset="0.0000000"
   id="stop956" />




















      <stop
   style="stop-color:#14a2da;stop-opacity:1.0000000;"
   offset="1.0000000"
   id="stop958" />




















    </linearGradient>










<linearGradient
   id="linearGradient891">
      <stop
   style="stop-color:#fbffbf;stop-opacity:1.0000000;"
   offset="0.0000000"
   id="stop893" />




















      <stop
   style="stop-color:#ffffff;stop-opacity:0.13008130;"
   offset="1.0000000"
   id="stop895" />




















    </linearGradient>












    <linearGradient
   id="linearGradient622">
      <stop
   style="stop-color:#f8e29d;stop-opacity:0.4471;"
   offset="0"
   id="stop623" />




















      <stop
   style="stop-color:#272d2d;stop-opacity:0.4784;"
   offset="1"
   id="stop624" />




















    </linearGradient>




















    <linearGradient
   id="linearGradient617">
      <stop
   style="stop-color:#ffffff;stop-opacity:1.0000000;"
   offset="0.0000000"
   id="stop618" />




















      <stop
   style="stop-color:#565248;stop-opacity:1.0000000;"
   offset="1.0000000"
   id="stop619" />




















    </linearGradient>




















    <linearGradient
   id="linearGradient613">
      <stop
   style="stop-color:#ffffff;stop-opacity:0.0000000;"
   offset="0.0000000"
   id="stop614" />




















      <stop
   style="stop-color:#898989;stop-opacity:0.45528457;"
   offset="1.0000000"
   id="stop615" />




















    </linearGradient>




















    <linearGradient
   id="linearGradient607">
      <stop
   style="stop-color:#d7d5d5;stop-opacity:1.0000000;"
   offset="0.0000000"
   id="stop608" />




















      <stop
   style="stop-color:#000000;stop-opacity:0.4039;"
   offset="1"
   id="stop609" />




















    </linearGradient>




















    <radialGradient
   xlink:href="#linearGradient891"
   id="radialGradient610"
   cx="0.45522389"
   cy="0.45312500"
   r="0.48908448"
   fx="0.45522389"
   fy="0.45312500" />




















    <linearGradient
   xlink:href="#linearGradient891"
   id="linearGradient612"
   x1="-0.64754099"
   y1="-0.090909094"
   x2="0.83606559"
   y2="0.97902095"
   gradientUnits="objectBoundingBox" />




















    <radialGradient
   xlink:href="#linearGradient613"
   id="radialGradient616"
   cx="0.21333396"
   cy="0.38369742"
   r="1.7808846"
   fx="0.21333396"
   fy="0.38369742"
   gradientTransform="scale(0.962608,1.038844)"
   gradientUnits="objectBoundingBox" />




















    <linearGradient
   xlink:href="#linearGradient617"
   id="linearGradient621"
   x1="-0.42741936"
   y1="0.90625"
   x2="-0.96774197"
   y2="0.7890625" />




















    <linearGradient
   xlink:href="#linearGradient617"
   id="linearGradient626"
   x1="-0.59104401"
   y1="-0.30253443"
   x2="0.35769230"
   y2="0.85937500" />




















    <linearGradient
   xlink:href="#linearGradient617"
   id="linearGradient687"
   x1="0.61332619"
   y1="1.1830040"
   x2="0.80003732"
   y2="0.65496588" />




















    <linearGradient
   xlink:href="#linearGradient613"
   id="linearGradient742"
   x1="0.16054857"
   y1="0.61256921"
   x2="0.32109749"
   y2="1.0231932"
   gradientTransform="scale(0.962609,1.038844)"
   gradientUnits="objectBoundingBox" />




















  <linearGradient
   xlink:href="#linearGradient912"
   id="linearGradient1039" />





<defs
   id="defs1100"><linearGradient
   id="linearGradient1101">
      <stop
   style="stop-color:#ffffff;stop-opacity:1.0000000;"
   offset="0.0000000"
   id="stop1103" />




















      <stop
   style="stop-color:#a0a2a0;stop-opacity:1.0000000;"
   offset="1.0000000"
   id="stop1105" />




















    </linearGradient>









<linearGradient
   id="linearGradient1108">
      <stop
   style="stop-color:#7590ae;stop-opacity:1.0000000;"
   offset="0.0000000"
   id="stop1110" />




















      <stop
   style="stop-color:#314e6c;stop-opacity:1.0000000;"
   offset="1.0000000"
   id="stop1112" />




















    </linearGradient>










<linearGradient
   id="linearGradient1115">
      <stop
   style="stop-color:#ffffff;stop-opacity:1.0000000;"
   offset="0.0000000"
   id="stop1117" />




















      <stop
   style="stop-color:#14a2da;stop-opacity:1.0000000;"
   offset="1.0000000"
   id="stop1119" />




















    </linearGradient>










<linearGradient
   id="linearGradient1122">
      <stop
   style="stop-color:#fbffbf;stop-opacity:1.0000000;"
   offset="0.0000000"
   id="stop1124" />




















      <stop
   style="stop-color:#ffffff;stop-opacity:0.13008130;"
   offset="1.0000000"
   id="stop1126" />




















    </linearGradient>












    <linearGradient
   id="linearGradient1129">
      <stop
   style="stop-color:#f8e29d;stop-opacity:0.4471;"
   offset="0"
   id="stop1131" />




















      <stop
   style="stop-color:#272d2d;stop-opacity:0.4784;"
   offset="1"
   id="stop1133" />




















    </linearGradient>




















    <linearGradient
   id="linearGradient1136">
      <stop
   style="stop-color:#ffffff;stop-opacity:1.0000000;"
   offset="0.0000000"
   id="stop1138" />




















      <stop
   style="stop-color:#565248;stop-opacity:1.0000000;"
   offset="1.0000000"
   id="stop1140" />




















    </linearGradient>




















    <linearGradient
   id="linearGradient1143">
      <stop
   style="stop-color:#ffffff;stop-opacity:0.0000000;"
   offset="0.0000000"
   id="stop1145" />




















      <stop
   style="stop-color:#ffffff;stop-opacity:0.69918698;"
   offset="1.0000000"
   id="stop1147" />




















    </linearGradient>




















    <linearGradient
   id="linearGradient1150">
      <stop
   style="stop-color:#d7d5d5;stop-opacity:1.0000000;"
   offset="0.0000000"
   id="stop1152" />




















      <stop
   style="stop-color:#000000;stop-opacity:0.4039;"
   offset="1"
   id="stop1154" />




















    </linearGradient>




















    <radialGradient
   xlink:href="#linearGradient891"
   id="radialGradient1157"
   cx="0.45522389"
   cy="0.45312500"
   r="0.48908448"
   fx="0.45522389"
   fy="0.45312500" />




















    <linearGradient
   xlink:href="#linearGradient617"
   id="linearGradient1159"
   x1="0.39686918"
   y1="0.97534692"
   x2="0.41513580"
   y2="0.62097520"
   gradientUnits="objectBoundingBox" />




















    <radialGradient
   xlink:href="#linearGradient613"
   id="radialGradient1161"
   cx="0.21333396"
   cy="0.38369742"
   r="1.7808846"
   fx="0.21333396"
   fy="0.38369742"
   gradientTransform="scale(0.962608,1.038844)"
   gradientUnits="objectBoundingBox" />




















    <linearGradient
   xlink:href="#linearGradient617"
   id="linearGradient1163"
   x1="-0.42741936"
   y1="0.90625"
   x2="-0.96774197"
   y2="0.7890625" />




















    <linearGradient
   xlink:href="#linearGradient617"
   id="linearGradient1165"
   x1="-0.59104401"
   y1="-0.30253443"
   x2="0.35769230"
   y2="0.85937500" />




















    <linearGradient
   xlink:href="#linearGradient617"
   id="linearGradient1167"
   x1="0.61332619"
   y1="1.1830040"
   x2="0.80003732"
   y2="0.65496588" />




















    <linearGradient
   xlink:href="#linearGradient613"
   id="linearGradient1169"
   x1="0.30220908"
   y1="0.79432046"
   x2="0.32109731"
   y2="1.0231928"
   gradientTransform="scale(0.962609,1.038844)"
   gradientUnits="objectBoundingBox" />




















  <linearGradient
   xlink:href="#linearGradient912"
   id="linearGradient1171" />





</defs>

<sodipodi:namedview
   id="namedview1174"
   inkscape:zoom="2.6884790"
   inkscape:cx="22.431804"
   inkscape:cy="-13.996389"
   inkscape:window-width="640"
   inkscape:window-height="501"
   inkscape:window-x="-41"
   inkscape:window-y="209"
   showguides="false"
   snaptoguides="false">
    <sodipodi:guide
   orientation="horizontal"
   position="43.519031"
   id="guide1176" />





  </sodipodi:namedview>

</defs>

<rect
   style="fill:#000006;fill-opacity:0.68292683;fill-rule:evenodd;stroke:none;stroke-width:0.99266949pt;"
   id="rect933"
   width="48.605209"
   height="55.096209"
   ry="1.9003337"
   x="7.8949676"
   y="4.6713177" />



<sodipodi:namedview
   id="base"
   inkscape:zoom="5.3769580"
   inkscape:cx="22.431807"
   inkscape:cy="28.554352"
   inkscape:window-width="640"
   inkscape:window-height="501"
   inkscape:window-x="33"
   inkscape:window-y="150"
   showguides="false"
   snaptoguides="false">
    <sodipodi:guide
   orientation="horizontal"
   position="43.519031"
   id="guide1036" />





  </sodipodi:namedview>



<rect
   style="fill:#ffffff;fill-opacity:1.0000000;fill-rule:evenodd;stroke:#000000;stroke-width:0.48750000;stroke-opacity:1.0000000;stroke-dasharray:none;"
   id="rect932"
   width="45.815529"
   height="52.771473"
   ry="1.8201507"
   x="8.5923881"
   y="5.3687382" />







  

  

  

  

  
  

  




  





  





  





  





  
    











    











    














    








    











    











    











    











    











    











  





  





  
  
  
  
  
  
  
  






  
  
  
  
  
  
  
  
  







  













  




  




  











  
    

    

    








  






  






  






  






  




  




  
  
  
  
  
  
  
  





  
  
  
  
  
  
  
  
  






  

























































    
      
      
      
    
  


























  

  

  

  

  
  

  




  





  





  





  





  
    











    











    














    








    











    











    











    











    











    











  





  





  
  
  
  
  
  
  
  






  
  
  
  
  
  
  
  
  







  













  




  




  











  
    

    

    








  






  






  






  






  




  




  
  
  
  
  
  
  
  





  
  
  
  
  
  
  
  
  






  

























































    
      
      
      
    
  


















<text
   xml:space="preserve"
   style="fill:black;fill-opacity:1;stroke:none;font-family:Bitstream Vera Sans;font-style:normal;font-weight:bold;font-size:10.000000;font-stretch:normal;font-variant:normal;text-anchor:start;writing-mode:lr;stroke-opacity:1;stroke-width:1pt;stroke-linejoin:miter;stroke-linecap:butt;"
   x="23.014872"
   y="22.339300"
   id="text1447"><tspan
     id="tspan1448"></tspan></text>


  



  



  



  



















  




  




  




  




  




  




  
  
  
  
  
  
  
  









  
  
  
  
  
  
  
  
  










  














		<g
   id="g879"
   transform="translate(8.352284,10.89464)">
			<path
   style="fill-rule:evenodd;clip-rule:evenodd;stroke:none;"
   d="M33.7,30.3c0,0.3,0.3,0.6,0.6,0.6c0.3,0,0.6-0.3,0.6-0.6c0-0.3-0.3-0.6-0.6-0.6c-0.3,0-0.6,0.3-0.6,0.6z M33.6,30.3c0-0.4,0.3-0.7,0.7-0.7c0.4,0,0.7,0.3,0.7,0.7c0,0.4-0.3,0.7-0.7,0.7c-0.4,0-0.7-0.3-0.7-0.7z"
   id="path881" />



			<g
   id="g883">
				<path
   style="stroke:none;"
   d="M34,30.7V30h0.3c0.1,0,0.1,0,0.1,0c0,0,0.1,0,0.1,0.1c0,0,0,0.1,0,0.1c0,0.1,0,0.1-0.1,0.1c0,0-0.1,0.1-0.2,0.1c0,0,0,0,0.1,0c0,0,0.1,0.1,0.1,0.1l0.1,0.2h-0.1l-0.1-0.2c0,0-0.1-0.1-0.1-0.1c0,0,0,0,0,0c0,0,0,0,0,0c0,0,0,0-0.1,0h-0.1      v0.3H34z M34.1,30.3h0.2c0,0,0.1,0,0.1,0c0,0,0,0,0.1,0c0,0,0,0,0-0.1c0,0,0-0.1,0-0.1c0,0-0.1,0-0.1,0h-0.2v0.2z"
   id="path885" />



			</g>



		</g>



		<g
   style="opacity:0.34999999;"
   id="g889"
   transform="translate(8.352284,10.89464)">
			<path
   style="fill:none;stroke:none;"
   d="M23.6,11.2c-2.5,2.2,8.4,21.9,11,16.9c2.9-5.7-26.1,6.3-19.8,8c7.3,1.9,13.5-29,8.8-24.8z"
   id="path891" />



			<path
   style="stroke:none;"
   d="M22.9,11c-3,3.9,7.1,21.9,11.8,17.7c2.6-2.3-1.1-3-2.9-2.7c-5,0.9-10.1,3-14.5,5.5c-0.9,0.5-6.4,3.5-3.7,5c3.1,1.7,6.1-2.8,7.2-4.8c2.9-5,4.4-11.3,4.9-17.1c0.2-1.8,0.1-6-2.7-3.9c-0.9,0.7-0.3,1.6,0.6,0.9c0.4-0.3,0.3,5,0.2,5.5     c-0.5,3.4-1.4,6.7-2.5,10c-1,2.7-2.4,6.8-5.1,8.2c-2.1,1.1-1.5-0.8-0.5-1.5c1.2-0.9,2.6-1.6,3.9-2.2c2.8-1.4,5.7-2.5,8.7-3.4c1.1-0.4,2.3-0.6,3.5-0.8c1.9-0.3,2,1.3,0.7,0.5c-2.6-1.5-4.4-5.1-5.8-7.6c-0.9-1.6-4.2-7-2.8-8.9c0.7-0.9-0.8-0.9-1.3-0.3z"
   id="path893" />



		</g>



		
			<path
   style="fill:none;"
   d="M 30.952280,21.594642 C 28.452280,23.794642 39.352280,43.494642 41.952280,38.494642 C 44.852280,32.794642 15.852280,44.794642 22.152280,46.494642 C 29.452280,48.394642 35.652280,17.494642 30.952280,21.694642 L 30.952280,21.594642 z "
   id="path898" />



			<path
   style="fill:#f10000;fill-opacity:1.0000000;"
   d="M 30.252280,21.494642 C 27.252280,25.394642 37.352280,43.394642 42.052280,39.194642 C 44.652280,36.894642 40.952280,36.194642 39.152280,36.494642 C 34.152280,37.394642 29.052280,39.494642 24.652280,41.994642 C 23.752280,42.494642 18.252280,45.494642 20.952280,46.994642 C 24.052280,48.694642 27.052280,44.194642 28.152280,42.194642 C 31.052280,37.194642 32.552280,30.894642 33.052280,25.094642 C 33.252280,23.294642 33.152280,19.094642 30.352280,21.194642 C 29.452280,21.894642 30.052280,22.794642 30.952280,22.094642 C 31.352280,21.794642 31.252280,27.094642 31.152280,27.594642 C 30.652280,30.994642 29.752280,34.294642 28.652280,37.594642 C 27.652280,40.294642 26.252280,44.394642 23.552280,45.794642 C 21.452280,46.894642 22.052280,44.994642 23.052280,44.294642 C 24.252280,43.394642 25.652280,42.694642 26.952280,42.094642 C 29.752280,40.694642 32.652280,39.594642 35.652280,38.694642 C 36.752280,38.294642 37.952280,38.094642 39.152280,37.894642 C 41.052280,37.594642 41.152280,39.194642 39.852280,38.394642 C 37.252280,36.894642 35.452280,33.294642 34.052280,30.794642 C 33.152280,29.194642 29.852280,23.794642 31.252280,21.894642 C 31.952280,20.994642 30.452280,20.994642 29.952280,21.594642 L 30.252280,21.494642 z "
   id="path900" />



		
	<path
   style="fill:url(#linearGradient612);fill-opacity:1.0000000;"
   d="M 30.252280,21.494642 C 27.252280,25.394642 37.352280,43.394642 42.052280,39.194642 C 44.652280,36.894642 40.952280,36.194642 39.152280,36.494642 C 34.152280,37.394642 29.052280,39.494642 24.652280,41.994642 C 23.752280,42.494642 18.252280,45.494642 20.952280,46.994642 C 24.052280,48.694642 27.052280,44.194642 28.152280,42.194642 C 31.052280,37.194642 32.552280,30.894642 33.052280,25.094642 C 33.252280,23.294642 33.152280,19.094642 30.352280,21.194642 C 29.452280,21.894642 30.052280,22.794642 30.952280,22.094642 C 31.352280,21.794642 31.252280,27.094642 31.152280,27.594642 C 30.652280,30.994642 29.752280,34.294642 28.652280,37.594642 C 27.652280,40.294642 26.252280,44.394642 23.552280,45.794642 C 21.452280,46.894642 22.052280,44.994642 23.052280,44.294642 C 24.252280,43.394642 25.652280,42.694642 26.952280,42.094642 C 29.752280,40.694642 32.652280,39.594642 35.652280,38.694642 C 36.752280,38.294642 37.952280,38.094642 39.152280,37.894642 C 41.052280,37.594642 41.152280,39.194642 39.852280,38.394642 C 37.252280,36.894642 35.452280,33.294642 34.052280,30.794642 C 33.152280,29.194642 29.852280,23.794642 31.252280,21.894642 C 31.952280,20.994642 30.452280,20.994642 29.952280,21.594642 L 30.252280,21.494642 z "
   id="path1080" />




<rect
   style="font-size:12;fill:url(#linearGradient742);fill-rule:evenodd;stroke-width:1.295431;stroke-linejoin:round;"
   id="rect809"
   width="40.625461"
   height="45.500029"
   x="11.703663"
   y="10.950606"
   ry="1.5693499" />

  



  



  



  



















  




  




  




  




  




  




  
  
  
  
  
  
  
  <rect
   style="fill:#ffffff;fill-rule:evenodd;stroke:#000000;stroke-width:0.87169582;"
   id="rect876"
   width="26.669992"
   height="10.035146"
   ry="0.85741842"
   x="18.513867"
   y="7.0928962" />










  
  
  
  
  
  
  
  
  <rect
   style="fill:#314e6c;fill-rule:evenodd;stroke-width:0.90870070;fill-opacity:1.0000000;"
   id="rect1035"
   width="25.369793"
   height="8.9803200"
   ry="0.76729244"
   x="19.491752"
   y="8.1116090" />











  














		


		


		
			


			


		
	

<path
   style="font-size:10.000000;font-weight:bold;stroke-width:1.0000000pt;font-family:Bitstream Vera Sans;fill:#fffbff;fill-opacity:1.0000000;"
   d="M 40.814387,8.3232120 L 40.814387,9.3134738 L 39.895290,9.3134738 C 39.660100,9.3134738 39.496086,9.3528033 39.403247,9.4314624 C 39.310409,9.5073122 39.263991,9.6407517 39.263991,9.8317809 L 39.263991,10.160464 L 40.684414,10.160464 L 40.684414,11.239217 L 39.263991,11.239217 L 39.263991,14.880008 L 37.602188,14.880008 L 37.602188,11.239217 L 36.775929,11.239217 L 36.775929,10.160464 L 37.602188,10.160464 L 37.602188,9.8317809 C 37.602188,9.3176876 37.760013,8.9384385 38.075662,8.6940334 C 38.391312,8.4468192 38.880259,8.3232120 39.542505,8.3232120 L 40.814387,8.3232120 z M 34.125400,10.851540 L 34.125400,8.3232120 L 35.796486,8.3232120 L 35.796486,14.880008 L 34.125400,14.880008 L 34.125400,14.197360 C 33.896399,14.475476 33.644189,14.679147 33.368769,14.808373 C 33.093350,14.937598 32.774605,15.002211 32.412536,15.002211 C 31.771953,15.002211 31.245870,14.771853 30.834288,14.311135 C 30.422706,13.847608 30.216915,13.252046 30.216915,12.524450 C 30.216915,11.796853 30.422706,11.202696 30.834288,10.741979 C 31.245870,10.278452 31.771953,10.046689 32.412536,10.046689 C 32.771510,10.046689 33.088708,10.112706 33.364127,10.244741 C 33.642641,10.373967 33.896399,10.576233 34.125400,10.851540 z M 33.029910,13.906603 C 33.385790,13.906603 33.656568,13.788614 33.842244,13.552636 C 34.031015,13.316659 34.125400,12.973931 34.125400,12.524450 C 34.125400,12.074970 34.031015,11.732241 33.842244,11.496263 C 33.656568,11.260286 33.385790,11.142297 33.029910,11.142297 C 32.677125,11.142297 32.406347,11.260286 32.217577,11.496263 C 32.031900,11.732241 31.939062,12.074970 31.939062,12.524450 C 31.939062,12.973931 32.031900,13.316659 32.217577,13.552636 C 32.406347,13.788614 32.677125,13.906603 33.029910,13.906603 z M 25.445034,14.197360 L 25.445034,16.675122 L 23.783231,16.675122 L 23.783231,10.160464 L 25.445034,10.160464 L 25.445034,10.851540 C 25.674035,10.576233 25.927793,10.373967 26.206308,10.244741 C 26.484821,10.112706 26.805113,10.046689 27.167182,10.046689 C 27.807765,10.046689 28.333847,10.278452 28.745430,10.741979 C 29.157013,11.202696 29.362804,11.796853 29.362804,12.524450 C 29.362804,13.252046 29.157013,13.847608 28.745430,14.311135 C 28.333847,14.771853 27.807765,15.002211 27.167182,15.002211 C 26.805113,15.002211 26.484821,14.937598 26.206308,14.808373 C 25.927793,14.676338 25.674035,14.472667 25.445034,14.197360 z M 26.549809,11.142297 C 26.193929,11.142297 25.920056,11.261691 25.728191,11.500477 C 25.539420,11.736455 25.445034,12.077779 25.445034,12.524450 C 25.445034,12.971121 25.539420,13.313850 25.728191,13.552636 C 25.920056,13.788614 26.193929,13.906603 26.549809,13.906603 C 26.905688,13.906603 27.176465,13.788614 27.362142,13.552636 C 27.550913,13.316659 27.645298,12.973931 27.645298,12.524450 C 27.645298,12.074970 27.550913,11.732241 27.362142,11.496263 C 27.176465,11.260286 26.905688,11.142297 26.549809,11.142297 z "
   id="path1093" />


</svg>
