<?xml version="1.0" encoding="UTF-8" standalone="no"?>
<!DOCTYPE svg PUBLIC "-//W3C//DTD SVG 20010904//EN"
"http://www.w3.org/TR/2001/REC-SVG-20010904/DTD/svg10.dtd">
<!-- Created with Sodipodi ("http://www.sodipodi.com/") -->
<svg
   id="svg602"
   sodipodi:version="0.32"
   width="48pt"
   height="48pt"
   xml:space="preserve"
   sodipodi:docbase="/home/krosstok/Desktop/contrib/tempmime"
   sodipodi:docname="gnome-mime-image-bmp.svg"
   inkscape:version="0.38.1"
   xmlns="http://www.w3.org/2000/svg"
   xmlns:inkscape="http://www.inkscape.org/namespaces/inkscape"
   xmlns:sodipodi="http://sodipodi.sourceforge.net/DTD/sodipodi-0.dtd"
   xmlns:xml="http://www.w3.org/XML/1998/namespace"
   xmlns:xlink="http://www.w3.org/1999/xlink">
<rect
   style="fill:#000006;fill-opacity:0.68292683;fill-rule:evenodd;stroke-width:0.99266949pt;"
   id="rect933"
   width="48.605208"
   height="53.933841"
   ry="1.8602422"
   x="7.8949676"
   y="5.8336849"
   transform="translate(-0.464950,-0.232471)" />






<rect
   style="fill:#ffffff;fill-rule:evenodd;stroke:#000000;stroke-width:0.61250000;stroke-dasharray:none;"
   id="rect932"
   width="45.815529"
   height="52.771473"
   ry="1.8201507"
   x="8.5923881"
   y="5.3687382"
   transform="translate(-0.464950,-0.232471)" />







  

  

  

  

  
  

  




  





  





  





  





  
    











    











    














    








    











    











    











    











    











    











  





  





  
  
  
  
  
  
  
  






  
  
  
  
  
  
  
  
  







  













  




  




  











  
    

    

    








  






  






  






  






  




  




  
  
  
  
  
  
  
  





  
  
  
  
  
  
  
  
  






  

























































    
      
      
      
    
  


























  

  

  

  

  
  

  




  





  





  





  





  
    











    











    














    








    











    











    











    











    











    











  





  





  
  
  
  
  
  
  
  






  
  
  
  
  
  
  
  
  







  













  




  




  











  
    

    

    








  






  






  






  






  




  




  
  
  
  
  
  
  
  





  
  
  
  
  
  
  
  
  






  

























































    
      
      
      
    
  


















<text
   xml:space="preserve"
   style="font-size:10.000000;font-weight:bold;stroke-width:1.0000000pt;font-family:Bitstream Vera Sans;"
   x="21.852505"
   y="17.922305"
   id="text1447"
   transform="translate(-0.464950,-0.232471)"><tspan
     id="tspan1448"></tspan></text>



  <defs
   id="defs604"><linearGradient
   id="linearGradient912">
      <stop
   style="stop-color:#ffffff;stop-opacity:1.0000000;"
   offset="0.0000000"
   id="stop914" />
















      <stop
   style="stop-color:#a0a2a0;stop-opacity:1.0000000;"
   offset="1.0000000"
   id="stop916" />
















    </linearGradient>





<linearGradient
   id="linearGradient960">
      <stop
   style="stop-color:#7590ae;stop-opacity:1.0000000;"
   offset="0.0000000"
   id="stop962" />
















      <stop
   style="stop-color:#314e6c;stop-opacity:1.0000000;"
   offset="1.0000000"
   id="stop964" />
















    </linearGradient>






<linearGradient
   id="linearGradient954">
      <stop
   style="stop-color:#ffffff;stop-opacity:1.0000000;"
   offset="0.0000000"
   id="stop956" />
















      <stop
   style="stop-color:#14a2da;stop-opacity:1.0000000;"
   offset="1.0000000"
   id="stop958" />
















    </linearGradient>






<linearGradient
   id="linearGradient891">
      <stop
   style="stop-color:#fbffbf;stop-opacity:1.0000000;"
   offset="0.0000000"
   id="stop893" />
















      <stop
   style="stop-color:#ffffff;stop-opacity:0.13008130;"
   offset="1.0000000"
   id="stop895" />
















    </linearGradient>








    <linearGradient
   id="linearGradient622">
      <stop
   style="stop-color:#f8e29d;stop-opacity:0.4471;"
   offset="0"
   id="stop623" />
















      <stop
   style="stop-color:#272d2d;stop-opacity:0.4784;"
   offset="1"
   id="stop624" />
















    </linearGradient>
















    <linearGradient
   id="linearGradient617">
      <stop
   style="stop-color:#ffffff;stop-opacity:1.0000000;"
   offset="0.0000000"
   id="stop618" />
















      <stop
   style="stop-color:#9db8d2;stop-opacity:1.0000000;"
   offset="1.0000000"
   id="stop619" />
















    </linearGradient>
















    <linearGradient
   id="linearGradient613">
      <stop
   style="stop-color:#ffffff;stop-opacity:0.0000000;"
   offset="0.0000000"
   id="stop614" />
















      <stop
   style="stop-color:#5d6567;stop-opacity:0.61788619;"
   offset="1.0000000"
   id="stop615" />
















    </linearGradient>
















    <linearGradient
   id="linearGradient607">
      <stop
   style="stop-color:#d7d5d5;stop-opacity:1.0000000;"
   offset="0.0000000"
   id="stop608" />
















      <stop
   style="stop-color:#000000;stop-opacity:0.4039;"
   offset="1"
   id="stop609" />
















    </linearGradient>
















    <radialGradient
   xlink:href="#linearGradient891"
   id="radialGradient610"
   cx="0.45522389"
   cy="0.45312500"
   r="0.48908448"
   fx="0.45522389"
   fy="0.45312500" />
















    <linearGradient
   xlink:href="#linearGradient617"
   id="linearGradient612"
   x1="0.46913579"
   y1="0.75781250"
   x2="0.47872341"
   y2="0.33566433" />
















    <radialGradient
   xlink:href="#linearGradient613"
   id="radialGradient616"
   cx="0.21333398"
   cy="0.38369718"
   r="1.7808839"
   fx="0.21333398"
   fy="0.38369718"
   gradientTransform="scale(0.962609,1.038844)"
   gradientUnits="objectBoundingBox" />
















    <linearGradient
   xlink:href="#linearGradient617"
   id="linearGradient621"
   x1="-0.42741936"
   y1="0.90625"
   x2="-0.96774197"
   y2="0.7890625" />
















    <linearGradient
   xlink:href="#linearGradient960"
   id="linearGradient626"
   x1="0.56538463"
   y1="0.22656250"
   x2="0.35769230"
   y2="0.85937500" />
















    <linearGradient
   xlink:href="#linearGradient912"
   id="linearGradient687"
   x1="0.22845474"
   y1="0.19545758"
   x2="1.6790782"
   y2="1.9680506" />
















    <linearGradient
   xlink:href="#linearGradient613"
   id="linearGradient742"
   x1="0.26898631"
   y1="0.76066285"
   x2="0.85333592"
   y2="1.3463058"
   gradientTransform="scale(0.962609,1.038844)" />
















  <linearGradient
   xlink:href="#linearGradient912"
   id="linearGradient1039" />

<defs
   id="defs937"><linearGradient
   id="linearGradient938">
      <stop
   style="stop-color:#ffffff;stop-opacity:1.0000000;"
   offset="0.0000000"
   id="stop940" />




















      <stop
   style="stop-color:#a0a2a0;stop-opacity:1.0000000;"
   offset="1.0000000"
   id="stop942" />




















    </linearGradient>









<linearGradient
   id="linearGradient945">
      <stop
   style="stop-color:#7590ae;stop-opacity:1.0000000;"
   offset="0.0000000"
   id="stop947" />




















      <stop
   style="stop-color:#314e6c;stop-opacity:1.0000000;"
   offset="1.0000000"
   id="stop949" />




















    </linearGradient>










<linearGradient
   id="linearGradient952">
      <stop
   style="stop-color:#ffffff;stop-opacity:1.0000000;"
   offset="0.0000000"
   id="stop954" />




















      <stop
   style="stop-color:#14a2da;stop-opacity:1.0000000;"
   offset="1.0000000"
   id="stop957" />




















    </linearGradient>










<linearGradient
   id="linearGradient961">
      <stop
   style="stop-color:#fbffbf;stop-opacity:1.0000000;"
   offset="0.0000000"
   id="stop963" />




















      <stop
   style="stop-color:#ffffff;stop-opacity:0.13008130;"
   offset="1.0000000"
   id="stop965" />




















    </linearGradient>












    <linearGradient
   id="linearGradient968">
      <stop
   style="stop-color:#f8e29d;stop-opacity:0.4471;"
   offset="0"
   id="stop970" />




















      <stop
   style="stop-color:#272d2d;stop-opacity:0.4784;"
   offset="1"
   id="stop972" />




















    </linearGradient>




















    <linearGradient
   id="linearGradient975">
      <stop
   style="stop-color:#ffffff;stop-opacity:1.0000000;"
   offset="0.0000000"
   id="stop977" />




















      <stop
   style="stop-color:#565248;stop-opacity:1.0000000;"
   offset="1.0000000"
   id="stop979" />




















    </linearGradient>




















    <linearGradient
   id="linearGradient982">
      <stop
   style="stop-color:#ffffff;stop-opacity:0.0000000;"
   offset="0.0000000"
   id="stop984" />




















      <stop
   style="stop-color:#898989;stop-opacity:0.45528457;"
   offset="1.0000000"
   id="stop986" />




















    </linearGradient>




















    <linearGradient
   id="linearGradient989">
      <stop
   style="stop-color:#d7d5d5;stop-opacity:1.0000000;"
   offset="0.0000000"
   id="stop991" />




















      <stop
   style="stop-color:#000000;stop-opacity:0.4039;"
   offset="1"
   id="stop993" />




















    </linearGradient>




















    <radialGradient
   xlink:href="#linearGradient891"
   id="radialGradient996"
   cx="0.45522389"
   cy="0.45312500"
   r="0.48908448"
   fx="0.45522389"
   fy="0.45312500" />




















    <linearGradient
   xlink:href="#linearGradient617"
   id="linearGradient998"
   x1="0.39686918"
   y1="0.97534692"
   x2="0.41513580"
   y2="0.62097520"
   gradientUnits="objectBoundingBox" />




















    <radialGradient
   xlink:href="#linearGradient613"
   id="radialGradient1000"
   cx="0.21333396"
   cy="0.38369742"
   r="1.7808846"
   fx="0.21333396"
   fy="0.38369742"
   gradientTransform="scale(0.962608,1.038844)"
   gradientUnits="objectBoundingBox" />




















    <linearGradient
   xlink:href="#linearGradient617"
   id="linearGradient1002"
   x1="-0.42741936"
   y1="0.90625"
   x2="-0.96774197"
   y2="0.7890625" />




















    <linearGradient
   xlink:href="#linearGradient617"
   id="linearGradient1004"
   x1="-0.59104401"
   y1="-0.30253443"
   x2="0.35769230"
   y2="0.85937500" />




















    <linearGradient
   xlink:href="#linearGradient617"
   id="linearGradient1006"
   x1="0.61332619"
   y1="1.1830040"
   x2="0.80003732"
   y2="0.65496588" />




















    <linearGradient
   xlink:href="#linearGradient613"
   id="linearGradient1008"
   x1="0.24554488"
   y1="0.78758895"
   x2="0.32109740"
   y2="1.0231930"
   gradientTransform="scale(0.962609,1.038844)"
   gradientUnits="objectBoundingBox" />




















  <linearGradient
   xlink:href="#linearGradient912"
   id="linearGradient1010" />





<defs
   id="defs1100"><linearGradient
   id="linearGradient1101">
      <stop
   style="stop-color:#ffffff;stop-opacity:1.0000000;"
   offset="0.0000000"
   id="stop1103" />




















      <stop
   style="stop-color:#a0a2a0;stop-opacity:1.0000000;"
   offset="1.0000000"
   id="stop1105" />




















    </linearGradient>









<linearGradient
   id="linearGradient1108">
      <stop
   style="stop-color:#7590ae;stop-opacity:1.0000000;"
   offset="0.0000000"
   id="stop1110" />




















      <stop
   style="stop-color:#314e6c;stop-opacity:1.0000000;"
   offset="1.0000000"
   id="stop1112" />




















    </linearGradient>










<linearGradient
   id="linearGradient1115">
      <stop
   style="stop-color:#ffffff;stop-opacity:1.0000000;"
   offset="0.0000000"
   id="stop1117" />




















      <stop
   style="stop-color:#14a2da;stop-opacity:1.0000000;"
   offset="1.0000000"
   id="stop1119" />




















    </linearGradient>










<linearGradient
   id="linearGradient1122">
      <stop
   style="stop-color:#fbffbf;stop-opacity:1.0000000;"
   offset="0.0000000"
   id="stop1124" />




















      <stop
   style="stop-color:#ffffff;stop-opacity:0.13008130;"
   offset="1.0000000"
   id="stop1126" />




















    </linearGradient>












    <linearGradient
   id="linearGradient1129">
      <stop
   style="stop-color:#f8e29d;stop-opacity:0.4471;"
   offset="0"
   id="stop1131" />




















      <stop
   style="stop-color:#272d2d;stop-opacity:0.4784;"
   offset="1"
   id="stop1133" />




















    </linearGradient>




















    <linearGradient
   id="linearGradient1136">
      <stop
   style="stop-color:#ffffff;stop-opacity:1.0000000;"
   offset="0.0000000"
   id="stop1138" />




















      <stop
   style="stop-color:#565248;stop-opacity:1.0000000;"
   offset="1.0000000"
   id="stop1140" />




















    </linearGradient>




















    <linearGradient
   id="linearGradient1143">
      <stop
   style="stop-color:#ffffff;stop-opacity:0.0000000;"
   offset="0.0000000"
   id="stop1145" />




















      <stop
   style="stop-color:#ffffff;stop-opacity:0.69918698;"
   offset="1.0000000"
   id="stop1147" />




















    </linearGradient>




















    <linearGradient
   id="linearGradient1150">
      <stop
   style="stop-color:#d7d5d5;stop-opacity:1.0000000;"
   offset="0.0000000"
   id="stop1152" />




















      <stop
   style="stop-color:#000000;stop-opacity:0.4039;"
   offset="1"
   id="stop1154" />




















    </linearGradient>




















    <radialGradient
   xlink:href="#linearGradient891"
   id="radialGradient1157"
   cx="0.45522389"
   cy="0.45312500"
   r="0.48908448"
   fx="0.45522389"
   fy="0.45312500" />




















    <linearGradient
   xlink:href="#linearGradient617"
   id="linearGradient1159"
   x1="0.39686918"
   y1="0.97534692"
   x2="0.41513580"
   y2="0.62097520"
   gradientUnits="objectBoundingBox" />




















    <radialGradient
   xlink:href="#linearGradient613"
   id="radialGradient1161"
   cx="0.21333396"
   cy="0.38369742"
   r="1.7808846"
   fx="0.21333396"
   fy="0.38369742"
   gradientTransform="scale(0.962608,1.038844)"
   gradientUnits="objectBoundingBox" />




















    <linearGradient
   xlink:href="#linearGradient617"
   id="linearGradient1163"
   x1="-0.42741936"
   y1="0.90625"
   x2="-0.96774197"
   y2="0.7890625" />




















    <linearGradient
   xlink:href="#linearGradient617"
   id="linearGradient1165"
   x1="-0.59104401"
   y1="-0.30253443"
   x2="0.35769230"
   y2="0.85937500" />




















    <linearGradient
   xlink:href="#linearGradient617"
   id="linearGradient1167"
   x1="0.61332619"
   y1="1.1830040"
   x2="0.80003732"
   y2="0.65496588" />




















    <linearGradient
   xlink:href="#linearGradient613"
   id="linearGradient1169"
   x1="0.30220908"
   y1="0.79432046"
   x2="0.32109731"
   y2="1.0231928"
   gradientTransform="scale(0.962609,1.038844)"
   gradientUnits="objectBoundingBox" />




















  <linearGradient
   xlink:href="#linearGradient912"
   id="linearGradient1171" />





</defs>

<sodipodi:namedview
   id="namedview1174"
   inkscape:zoom="2.6884790"
   inkscape:cx="22.431804"
   inkscape:cy="-13.996389"
   inkscape:window-width="640"
   inkscape:window-height="501"
   inkscape:window-x="-41"
   inkscape:window-y="209"
   showguides="false"
   snaptoguides="false">
    <sodipodi:guide
   orientation="horizontal"
   position="43.519031"
   id="guide1176" />





  </sodipodi:namedview>

</defs>
<sodipodi:namedview
   id="namedview1094"
   inkscape:zoom="5.3769580"
   inkscape:cx="22.431807"
   inkscape:cy="28.554352"
   inkscape:window-width="640"
   inkscape:window-height="501"
   inkscape:window-x="33"
   inkscape:window-y="150"
   showguides="false"
   snaptoguides="false">
    <sodipodi:guide
   orientation="horizontal"
   position="43.519031"
   id="guide1096" />





  </sodipodi:namedview>
</defs>





  <sodipodi:namedview
   id="base"
   inkscape:zoom="5.3769580"
   inkscape:cx="33.897523"
   inkscape:cy="15.130997"
   inkscape:window-width="640"
   inkscape:window-height="501"
   inkscape:window-x="23"
   inkscape:window-y="184"
   showguides="false"
   snaptoguides="false">
  <sodipodi:guide
   orientation="horizontal"
   position="43.519031"
   id="guide1036" />

</sodipodi:namedview>





  











  
    

    

    








  






  






  






  






  




  




  
  
  
  
  
  
  
  





  
  
  
  
  
  
  
  
  






  









<rect
   style="fill-opacity:0.59349591;fill-rule:evenodd;stroke-width:0.94999993;"
   id="rect1147"
   width="30.042507"
   height="25.748238"
   ry="0.82394350"
   x="17.236582"
   y="22.660687" />






<rect
   style="fill:url(#linearGradient687);fill-rule:evenodd;stroke:#000000;stroke-width:0.85707748;"
   id="rect1149"
   width="30.042511"
   height="25.748247"
   ry="0.82394391"
   x="16.153951"
   y="21.441754" />








<rect
   style="fill-opacity:0.69918698;fill-rule:evenodd;stroke-width:0.58660960pt;"
   id="rect1151"
   width="23.493916"
   height="18.278519"
   ry="0.58491266"
   x="19.338300"
   y="24.988044" />





<rect
   style="fill:url(#linearGradient612);fill-rule:evenodd;stroke:#000000;stroke-width:0.52923150pt;"
   id="rect1152"
   width="22.194761"
   height="16.856438"
   ry="0.53940594"
   x="19.987879"
   y="25.800670" />








<path
   sodipodi:type="arc"
   style="fill:url(#radialGradient610);fill-opacity:0.75000000;fill-rule:evenodd;stroke-width:1.0000000pt;"
   id="path1154"
   sodipodi:cx="28.109589"
   sodipodi:cy="26.794521"
   sodipodi:rx="4.9315066"
   sodipodi:ry="4.7671232"
   d="M 33.041095 26.794521 A 4.9315066 4.7671232 0 1 0 23.178082,26.794521 A 4.9315066 4.7671232 0 1 0 33.041095 26.794521 z"
   transform="matrix(0.554957,0.000000,0.000000,0.529395,12.15772,17.32503)" />







<path
   style="fill:#ceedff;fill-opacity:0.35772356;fill-rule:evenodd;stroke-width:0.63739777;stroke-linejoin:round;"
   d="M 20.139615,37.444185 L 20.266190,42.472086 L 41.736667,42.472086 L 41.736667,34.951506 L 38.101788,37.171108 L 32.494523,34.974692 L 27.116342,36.680251 L 23.112878,34.012295 L 20.139615,37.444185 z "
   id="path1156"
   sodipodi:nodetypes="ccccccccc" />






<path
   style="fill:url(#linearGradient626);fill-rule:evenodd;stroke-width:0.63739777;stroke-linejoin:round;"
   d="M 20.032040,37.971367 L 20.159246,42.272022 L 41.736667,42.272022 L 41.736667,35.839235 L 38.083684,37.737790 L 32.448489,35.859068 L 27.043520,37.317932 L 23.020116,35.035873 L 20.032040,37.971367 z "
   id="path1158"
   sodipodi:nodetypes="ccccccccc" />








    
      
      
      
    
  
<rect
   style="fill:#ffffff;fill-rule:evenodd;stroke:#78787e;stroke-width:0.80786693;"
   id="rect876"
   width="27.218390"
   height="12.008054"
   ry="1.0259868"
   x="17.658485"
   y="6.9200985" />


<rect
   style="fill:#990000;fill-rule:evenodd;stroke-width:0.41250000;fill-opacity:1.0000000;stroke:#000000;stroke-opacity:1.0000000;stroke-dasharray:none;"
   id="rect1035"
   width="26.499226"
   height="10.404858"
   ry="0.88900727"
   x="18.011730"
   y="7.6576168" />





<path
   style="font-size:10.000000;font-weight:bold;stroke-width:1.0000000pt;font-family:Bitstream Vera Sans;fill:#ffffff;fill-opacity:1.0000000;"
   d="M 39.461312,15.039028 L 39.461312,17.910121 L 37.713265,17.910121 L 37.713265,10.361293 L 39.461312,10.361293 L 39.461312,11.162075 C 39.702198,10.843064 39.969125,10.608689 40.262093,10.458950 C 40.555062,10.305955 40.891976,10.229457 41.272836,10.229457 C 41.946664,10.229457 42.500049,10.498012 42.932992,11.035122 C 43.365935,11.568976 43.582406,12.257452 43.582406,13.100551 C 43.582406,13.943650 43.365935,14.633754 42.932992,15.170864 C 42.500049,15.704718 41.946664,15.971645 41.272836,15.971645 C 40.891976,15.971645 40.555062,15.896775 40.262093,15.747035 C 39.969125,15.594041 39.702198,15.358038 39.461312,15.039028 z M 40.623422,11.498989 C 40.249073,11.498989 39.960987,11.637335 39.759164,11.914028 C 39.560596,12.187465 39.461312,12.582973 39.461312,13.100551 C 39.461312,13.618129 39.560596,14.015265 39.759164,14.291957 C 39.960987,14.565395 40.249073,14.702114 40.623422,14.702114 C 40.997771,14.702114 41.282601,14.565395 41.477914,14.291957 C 41.676482,14.018520 41.775765,13.621384 41.775765,13.100551 C 41.775765,12.579718 41.676482,12.182582 41.477914,11.909145 C 41.282601,11.635707 40.997771,11.498989 40.623422,11.498989 z M 32.361703,11.269497 C 32.583057,10.930955 32.845101,10.673793 33.147836,10.498012 C 33.453825,10.318976 33.789112,10.229457 34.153695,10.229457 C 34.781950,10.229457 35.260466,10.423142 35.589242,10.810512 C 35.918018,11.197882 36.082406,11.761033 36.082406,12.499965 L 36.082406,15.830043 L 34.324593,15.830043 L 34.324593,12.978481 C 34.327849,12.936163 34.329476,12.892218 34.329476,12.846645 C 34.332732,12.801072 34.334359,12.735968 34.334359,12.651332 C 34.334359,12.263962 34.277393,11.984015 34.163461,11.811489 C 34.049528,11.635707 33.865609,11.547817 33.611703,11.547817 C 33.279672,11.547817 33.022510,11.684535 32.840218,11.957973 C 32.661182,12.231410 32.568409,12.626918 32.561898,13.144496 L 32.561898,15.830043 L 30.804086,15.830043 L 30.804086,12.978481 C 30.804086,12.373012 30.752002,11.984015 30.647836,11.811489 C 30.543669,11.635707 30.358122,11.547817 30.091195,11.547817 C 29.755909,11.547817 29.497120,11.686163 29.314828,11.962856 C 29.132536,12.236293 29.041390,12.628546 29.041390,13.139614 L 29.041390,15.830043 L 27.283578,15.830043 L 27.283578,10.361293 L 29.041390,10.361293 L 29.041390,11.162075 C 29.256234,10.852830 29.502002,10.620082 29.778695,10.463832 C 30.058643,10.307582 30.366260,10.229457 30.701547,10.229457 C 31.079151,10.229457 31.412810,10.320603 31.702523,10.502895 C 31.992237,10.685187 32.211963,10.940720 32.361703,11.269497 z M 23.045297,14.702114 C 23.419646,14.702114 23.704476,14.565395 23.899789,14.291957 C 24.098357,14.018520 24.197640,13.621384 24.197640,13.100551 C 24.197640,12.579718 24.098357,12.182582 23.899789,11.909145 C 23.704476,11.635707 23.419646,11.498989 23.045297,11.498989 C 22.670948,11.498989 22.382862,11.637335 22.181039,11.914028 C 21.982471,12.187465 21.883187,12.582973 21.883187,13.100551 C 21.883187,13.618129 21.982471,14.015265 22.181039,14.291957 C 22.382862,14.565395 22.670948,14.702114 23.045297,14.702114 z M 21.883187,11.162075 C 22.124073,10.843064 22.391000,10.608689 22.683968,10.458950 C 22.976937,10.305955 23.313851,10.229457 23.694711,10.229457 C 24.368539,10.229457 24.921924,10.498012 25.354867,11.035122 C 25.787810,11.568976 26.004281,12.257452 26.004281,13.100551 C 26.004281,13.943650 25.787810,14.633754 25.354867,15.170864 C 24.921924,15.704718 24.368539,15.971645 23.694711,15.971645 C 23.313851,15.971645 22.976937,15.896775 22.683968,15.747035 C 22.391000,15.594041 22.124073,15.358038 21.883187,15.039028 L 21.883187,15.830043 L 20.135140,15.830043 L 20.135140,8.2323872 L 21.883187,8.2323872 L 21.883187,11.162075 z "
   id="path1052" />

<rect
   style="font-size:12.000000;fill:url(#linearGradient742);fill-rule:evenodd;stroke-width:1.2954310;stroke-linejoin:round;"
   id="rect1101"
   width="35.278572"
   height="46.197449"
   x="17.980446"
   y="10.950606"
   ry="1.5934047"
   transform="translate(-0.464950,-0.232471)" />
</svg>
