<?xml version="1.0" encoding="UTF-8" standalone="no"?>
<!DOCTYPE svg PUBLIC "-//W3C//DTD SVG 20010904//EN"
"http://www.w3.org/TR/2001/REC-SVG-20010904/DTD/svg10.dtd">
<!-- Created with Sodipodi ("http://www.sodipodi.com/") -->
<svg
   version="1.0"
   x="0"
   y="0"
   width="56.000000pt"
   height="56.000000pt"
   id="svg1"
   sodipodi:version="0.32"
   sodipodi:docname="gnome-fs-client.svg"
   sodipodi:docbase="/home/krosstok/.icons/Pdef/scalable/filesystems"
   inkscape:version="0.38.1"
   xmlns="http://www.w3.org/2000/svg"
   xmlns:inkscape="http://www.inkscape.org/namespaces/inkscape"
   xmlns:sodipodi="http://sodipodi.sourceforge.net/DTD/sodipodi-0.dtd"
   xmlns:xlink="http://www.w3.org/1999/xlink">
  <sodipodi:namedview
     id="base"
     inkscape:zoom="1.9010416"
     inkscape:cx="30.267927"
     inkscape:cy="27.753685"
     inkscape:window-width="719"
     inkscape:window-height="499"
     inkscape:window-x="218"
     inkscape:window-y="85" />
  <defs
     id="defs3">
    <linearGradient
       id="linearGradient1068">
      <stop
         offset="0.0000000"
         style="stop-color:#d2d2d2;stop-opacity:1.0000000;"
         id="stop1070" />
      <stop
         offset="1.0000000"
         style="stop-color:#ffffff;stop-opacity:1.0000000;"
         id="stop1069" />
    </linearGradient>
    <linearGradient
       id="linearGradient1065">
      <stop
         offset="0.0000000"
         style="stop-color:#ffffff;stop-opacity:1.0000000;"
         id="stop1067" />
      <stop
         offset="1.0000000"
         style="stop-color:#c2bfbf;stop-opacity:0.99607843;"
         id="stop1066" />
    </linearGradient>
    <linearGradient
       id="linearGradient1060">
      <stop
         offset="0.0000000"
         style="stop-color:#ffffff;stop-opacity:1.0000000;"
         id="stop1063" />
      <stop
         offset="0.50000000"
         style="stop-color:#acabaa;stop-opacity:0.99607843;"
         id="stop1062" />
      <stop
         offset="1.0000000"
         style="stop-color:#5a5856;stop-opacity:0.99607843;"
         id="stop1061" />
    </linearGradient>
    <linearGradient
       id="linearGradient645">
      <stop
         style="stop-color:#aca597;stop-opacity:1.0000000;"
         offset="0.0000000"
         id="stop646" />
      <stop
         style="stop-color:#ffffff;stop-opacity:1.0000000;"
         offset="1.0000000"
         id="stop647" />
    </linearGradient>
    <linearGradient
       id="linearGradient593">
      <stop
         style="stop-color:#478acf;stop-opacity:1.0000000;"
         offset="0.0000000"
         id="stop594" />
      <stop
         style="stop-color:#65c6f7;stop-opacity:1.0000000;"
         offset="1.0000000"
         id="stop595" />
    </linearGradient>
    <linearGradient
       id="linearGradient574">
      <stop
         style="stop-color:#85ad92;stop-opacity:1.0000;"
         offset="0"
         id="stop575" />
      <stop
         style="stop-color:#559db2;stop-opacity:0.7725;"
         offset="1"
         id="stop576" />
    </linearGradient>
    <linearGradient
       id="linearGradient570">
      <stop
         style="stop-color:#000000;stop-opacity:1.0000000;"
         offset="0.0000000"
         id="stop571" />
      <stop
         style="stop-color:#ffffff;stop-opacity:0.0000000;"
         offset="1.0000000"
         id="stop572" />
    </linearGradient>
    <linearGradient
       id="linearGradient573"
       xlink:href="#linearGradient1060"
       x1="0.61777318"
       y1="-0.78747839"
       x2="0.66039586"
       y2="-0.033485886" />
    <linearGradient
       id="linearGradient1213"
       xlink:href="#linearGradient1068"
       x1="1.0192926"
       y1="0.99115056"
       x2="0.49839231"
       y2="0.41592926" />
    <radialGradient
       id="radialGradient581"
       xlink:href="#linearGradient570"
       cx="0.78290993"
       cy="0.62068933"
       r="0.83833146"
       fx="0.78290993"
       fy="0.62068933" />
    <linearGradient
       id="linearGradient580"
       xlink:href="#linearGradient1068"
       x1="1.0723866"
       y1="0.85896289"
       x2="0.85338652"
       y2="0.42466211" />
    <linearGradient
       xlink:href="#linearGradient1060"
       id="linearGradient901"
       x1="-0.12911281"
       y1="0.028423717"
       x2="0.084990859"
       y2="0.11342888" />
    <linearGradient
       xlink:href="#linearGradient593"
       id="linearGradient902"
       x1="-0.10787173"
       y1="0.14179106"
       x2="0.43148690"
       y2="0.76865679" />
    <linearGradient
       xlink:href="#linearGradient1068"
       id="linearGradient916"
       x1="0.14831461"
       y1="-1.6875000"
       x2="0.43370786"
       y2="1.8125000" />
    <defs
       id="defs890">
      <linearGradient
         id="linearGradient922"
         x1="0.0000000"
         y1="0.50000000"
         x2="1.0000000"
         y2="0.50000000"
         gradientUnits="objectBoundingBox"
         spreadMethod="pad"
         xlink:href="#linearGradient1065" />
      <linearGradient
         id="linearGradient908"
         x1="0.0000000"
         y1="0.50000000"
         x2="1.0000000"
         y2="0.50000000"
         gradientUnits="objectBoundingBox"
         spreadMethod="pad"
         xlink:href="#linearGradient1060" />
      <linearGradient
         id="linearGradient894"
         x1="0.0000000"
         y1="0.50000000"
         x2="1.0000000"
         y2="0.50000000"
         gradientUnits="objectBoundingBox"
         spreadMethod="pad"
         xlink:href="#linearGradient1068" />
      <linearGradient
         xlink:href="#linearGradient894"
         id="linearGradient897"
         x1="0.59550560"
         y1="-0.33587787"
         x2="0.61348313"
         y2="1.1908396" />
      <linearGradient
         xlink:href="#linearGradient894"
         id="linearGradient898"
         x1="0.96449792"
         y1="1.0278323"
         x2="0.46738392"
         y2="0.21800731" />
      <linearGradient
         xlink:href="#linearGradient908"
         id="linearGradient907"
         x1="0.57078654"
         y1="2.3770492"
         x2="0.33258426"
         y2="0.49180329" />
      <linearGradient
         xlink:href="#linearGradient922"
         id="linearGradient921"
         x1="0.47058824"
         y1="0.15384616"
         x2="0.46547315"
         y2="0.98380566" />
      <linearGradient
         xlink:href="#linearGradient922"
         id="linearGradient948" />
      <defs
         id="defs987">
        <linearGradient
           id="linearGradient855"
           x1="0.0000000"
           y1="0.50000000"
           x2="1.0000000"
           y2="0.50000000"
           gradientUnits="objectBoundingBox"
           spreadMethod="pad"
           xlink:href="#linearGradient908" />
        <linearGradient
           id="linearGradient1188"
           x1="0.0000000"
           y1="0.50000000"
           x2="1.0000000"
           y2="0.50000000"
           gradientUnits="objectBoundingBox"
           spreadMethod="pad"
           xlink:href="#linearGradient922" />
        <linearGradient
           id="linearGradient831">
          <stop
             style="stop-color:#94897f;stop-opacity:1.0000000;"
             offset="0.0000000"
             id="stop832" />
          <stop
             style="stop-color:#fff5fe;stop-opacity:1.0000000;"
             offset="1.0000000"
             id="stop833" />
        </linearGradient>
        <linearGradient
           xlink:href="#linearGradient1188"
           id="linearGradient834"
           x1="0.87550199"
           y1="0.34817815"
           x2="-0.29317269"
           y2="0.93522269"
           gradientUnits="objectBoundingBox"
           spreadMethod="pad" />
        <radialGradient
           xlink:href="#linearGradient1188"
           id="radialGradient835"
           r="0.55628061"
           fy="0.28125"
           fx="0.59090906"
           cy="0.28125"
           cx="0.59090906"
           spreadMethod="pad" />
        <linearGradient
           xlink:href="#linearGradient1188"
           id="linearGradient893"
           x1="0.12793733"
           y1="0.76923078"
           x2="0.49608356"
           y2="0.70850199" />
        <linearGradient
           xlink:href="#linearGradient855"
           id="linearGradient625"
           x1="0.035955057"
           y1="1.0276498"
           x2="0.053932585"
           y2="-0.35944700" />
        <linearGradient
           xlink:href="#linearGradient1188"
           id="linearGradient627"
           x1="1.2826855"
           y1="0.12550607"
           x2="-0.15547703"
           y2="0.96356273" />
        <radialGradient
           xlink:href="#linearGradient1188"
           id="radialGradient628"
           r="1.59822237"
           fy="0.4866707"
           fx="0.36789617"
           cy="0.4866707"
           cx="0.36789617"
           gradientTransform="scale(0.877379,1.139758)" />
        <linearGradient
           xlink:href="#linearGradient1188"
           id="linearGradient628"
           x1="0.76923078"
           y1="0.14979757"
           x2="0.41909814"
           y2="0.73279351" />
      </defs>
      <sodipodi:namedview
         id="namedview898"
         pagecolor="#ffffff"
         bordercolor="#666666"
         borderopacity="1.0"
         inkscape:pageopacity="0.0"
         inkscape:pageshadow="2"
         inkscape:zoom="3.4732669"
         inkscape:cx="50.051177"
         inkscape:cy="18.096983"
         inkscape:window-width="1022"
         inkscape:window-height="670"
         showguides="false"
         snaptoguides="false"
         showgrid="false"
         snaptogrid="false"
         inkscape:window-x="0"
         inkscape:window-y="25">
        <sodipodi:guide
           orientation="vertical"
           position="28.705556"
           id="guide879" />
        <sodipodi:guide
           orientation="horizontal"
           position="30.130655"
           id="guide880" />
      </sodipodi:namedview>
    </defs>
    <sodipodi:namedview
       id="namedview1003"
       pagecolor="#ffffff"
       bordercolor="#666666"
       borderopacity="1.0"
       inkscape:pageopacity="0.0"
       inkscape:pageshadow="2"
       inkscape:zoom="1.3368738"
       inkscape:cx="24.541029"
       inkscape:cy="14.368596"
       inkscape:window-width="640"
       inkscape:window-height="499"
       showguides="true"
       snaptoguides="true"
       inkscape:window-x="138"
       inkscape:window-y="169" />
    <linearGradient
       xlink:href="#linearGradient1060"
       id="linearGradient1304"
       x1="-0.20218579"
       y1="0.21681416"
       x2="0.67759562"
       y2="0.57522124" />
    <linearGradient
       xlink:href="#linearGradient1065"
       id="linearGradient1322"
       x1="0.32404181"
       y1="0.77876109"
       x2="0.24041812"
       y2="0.26548672" />
    <linearGradient
       xlink:href="#linearGradient570"
       id="linearGradient909"
       x1="-1.7658943e-17"
       y1="0.50000000"
       x2="1.0000000"
       y2="0.50000000" />
  </defs>
  <path
     transform="matrix(1.081291,0.000000,0.000000,4.128500,-9.751057,-201.8620)"
     style="fill:url(#radialGradient581);fill-opacity:0.75000000;fill-rule:evenodd;stroke-width:3.0000000pt;"
     d="M 68.007059,64.127810 C 68.007059,65.026087 57.316800,64.640255 41.147804,64.640255 C 24.978809,64.640255 14.288550,65.026087 14.288550,64.127810 C 14.288550,63.229532 24.978809,62.819030 41.147804,62.819030 C 57.316800,62.819030 68.007059,63.229532 68.007059,64.127810 z "
     id="path911"
     sodipodi:nodetypes="ccccc" />
  <g
     id="g905"
     transform="matrix(0.854590,0.000000,0.000000,0.845306,4.897765,5.098892)">
    <g
       id="g1168"
       transform="matrix(1.250343,0.000000,0.000000,1.125170,-10.21629,2.069499)"
       style="">
      <path
         style="fill:url(#linearGradient898);fill-rule:evenodd;stroke:#000000;stroke-width:1.3750000;stroke-linejoin:round;"
         d="M 2.0358551,26.564365 L 2.0358551,46.512461 L 58.276349,46.512461 L 58.276349,26.564365 L 51.196118,23.100128 L 8.6340230,23.100128 L 2.0358551,26.564365 z "
         id="path892"
         sodipodi:nodetypes="ccccccc"
         transform="matrix(0.812567,0.000000,0.000000,0.716355,11.38063,25.64329)" />
      <path
         style="fill:url(#linearGradient897);fill-rule:evenodd;stroke:#ffffff;stroke-width:0.34255046;stroke-linejoin:round;"
         d="M 4.0445354,28.958049 L 4.0445354,44.070160 L 56.776632,44.070160 L 56.776632,28.958049 L 4.0445354,28.958049 z "
         id="path893"
         sodipodi:nodetypes="ccccc"
         transform="matrix(0.812567,0.000000,0.000000,0.716355,11.38063,25.64329)" />
      <rect
         style="fill-rule:evenodd;stroke:#000000;stroke-width:0.25826687;fill:url(#linearGradient573);"
         id="rect906"
         width="14.973477"
         height="2.6612575"
         x="39.909583"
         y="45.013064"
         ry="0.59139053"
         transform="matrix(0.950389,0.000000,0.000000,0.766125,3.057185,14.29110)" />
    </g>
    <rect
       width="40.052029"
       height="33.147816"
       ry="1.6277504"
       x="12.430549"
       y="8.9460497"
       style="font-size:12.000000;fill:url(#linearGradient580);fill-rule:evenodd;stroke:#000000;stroke-width:1.0223329;"
       id="rect562"
       transform="matrix(1.220178,0.000000,0.000000,1.098663,-4.840556,3.678653)" />
    <rect
       width="40.397691"
       height="30.109898"
       ry="2.1429338"
       x="14.701336"
       y="7.2551551"
       style="font-size:12.000000;fill:url(#linearGradient1213);fill-rule:evenodd;stroke:#000000;stroke-width:0.0000000;"
       id="rect575"
       transform="matrix(1.083749,0.000000,0.000000,1.053280,-2.632831,8.368445)" />
    <rect
       width="37.290400"
       height="26.522994"
       ry="0.67670087"
       x="15.787270"
       y="9.5822464"
       style="font-size:12.000000;fill:url(#linearGradient901);fill-rule:evenodd;stroke:#000000;stroke-width:0.55000001;stroke-linejoin:round;"
       id="rect563"
       transform="matrix(1.036670,0.000000,0.000000,1.014908,-1.189917,8.033017)" />
    <rect
       width="28.611176"
       height="19.898542"
       ry="0.37382659"
       x="20.425141"
       y="13.110404"
       style="font-size:12.000000;fill:url(#linearGradient902);fill-rule:evenodd;stroke-width:1.0893019;"
       id="rect576"
       transform="matrix(1.242543,0.000000,0.000000,1.201970,-8.722738,3.492391)" />
    <g
       id="g1315"
       transform="translate(-0.473208,4.124693)">
      <path
         style="fill:#d5c9cc;fill-opacity:0.75000000;fill-rule:evenodd;stroke-width:0.12500000;stroke:#000000;stroke-opacity:1.0000000;stroke-dasharray:none;stroke-linejoin:round;"
         d="M 19.068493,26.273973 L 19.150685,28.821919 L 22.191780,28.739727 L 22.438356,26.273973 L 19.068493,26.273973 z "
         id="path1314"
         sodipodi:nodetypes="ccccc" />
      <path
         style="fill:#c2b7b0;fill-opacity:1.0000000;fill-rule:evenodd;stroke-width:0.12500000;stroke:#000000;stroke-opacity:1.0000000;stroke-dasharray:none;"
         d="M 18.657534,27.178082 L 19.068493,28.821918 L 22.191780,28.821918 L 22.767123,27.178082 L 18.657534,27.178082 z "
         id="path1313"
         sodipodi:nodetypes="ccccc" />
    </g>
    <path
       style="font-size:12.000000;fill:#d6d2d2;fill-opacity:0.37499997;fill-rule:evenodd;stroke-width:1.0893019;"
       d="M 40.812822,21.157991 C 35.370156,20.647960 26.995253,21.546283 16.904134,22.061119 C 16.906167,28.023289 16.908206,31.922941 16.910231,37.885098 C 28.787421,20.082951 34.839198,25.813934 40.812822,21.157991 z "
       id="path644"
       sodipodi:nodetypes="cccc" />
    <rect
       width="35.550616"
       height="2.5475877"
       ry="0.047860593"
       x="16.656377"
       y="19.250703"
       style="font-size:12.000000;fill:url(#linearGradient916);fill-rule:evenodd;stroke-width:1.0893019;"
       id="rect1302" />
    <path
       style="fill:#000000;fill-opacity:0.47826087;fill-rule:evenodd;stroke-width:3.0000000pt;"
       d="M 18.617820,20.366915 C 17.455453,20.944379 18.890793,21.413045 18.249166,21.413045 C 17.607540,21.413045 17.086799,20.944379 17.086799,20.366915 C 17.086799,19.789451 17.142593,19.785731 17.784219,19.785731 C 18.425846,19.785731 18.617820,19.789451 18.617820,20.366915 z "
       id="path1307"
       sodipodi:nodetypes="ccccc" />
    <rect
       style="fill:#696969;fill-opacity:0.13768116;fill-rule:evenodd;stroke-width:3.0000000pt;"
       id="rect1308"
       width="3.7808220"
       height="0.73972601"
       ry="0.013896961"
       x="18.986301"
       y="20.356163" />
    <rect
       style="fill:#6b6d6d;fill-opacity:0.22463769;fill-rule:evenodd;stroke-width:3.0000000pt;"
       id="rect1309"
       width="3.7808220"
       height="0.82191783"
       ry="0.015441068"
       x="23.917809"
       y="20.273972" />
    <path
       style="fill:url(#linearGradient1304);fill-opacity:0.75000000;fill-rule:evenodd;stroke:#000000;stroke-width:0.10762834;"
       d="M 18.800152,35.457936 L 18.898584,38.130093 C 18.898584,38.221450 18.969725,38.294997 19.058092,38.294997 C 19.673588,38.956447 20.682813,38.702043 21.199876,38.294997 C 21.288244,38.294997 21.359385,38.221450 21.359385,38.130093 L 21.394186,35.425574 C 21.394186,35.334217 18.800152,35.366579 18.800152,35.457936 z "
       id="path1319"
       sodipodi:nodetypes="ccccccc" />
    <path
       style="fill:url(#linearGradient1322);fill-opacity:0.75000000;fill-rule:evenodd;stroke:#000000;stroke-width:0.12500000;stroke-dasharray:none;"
       d="M 18.318794,23.815392 L 18.288863,26.309767 L 17.899759,26.421456 L 17.899759,27.910635 L 22.209831,27.909306 L 22.209831,26.421456 L 21.820727,26.309767 L 21.790796,23.815392 L 18.318794,23.815392 z "
       id="path1321"
       sodipodi:nodetypes="ccccccccc" />
    <rect
       width="35.550617"
       height="1.7256701"
       ry="0.52557021"
       x="16.574184"
       y="41.360294"
       style="font-size:12.000000;fill:url(#linearGradient916);fill-rule:evenodd;stroke-width:1.0893019;"
       id="rect1323" />
    <path
       style="font-size:12.000000;fill:#5ca7ff;fill-opacity:0.44444445;fill-rule:evenodd;stroke-width:1.0893019;"
       d="M 51.036536,40.593291 L 16.592795,42.162832 L 52.278772,42.162832 L 52.278772,18.183820 L 51.036536,40.593291 z "
       id="path600"
       sodipodi:nodetypes="ccccc" />
  </g>
</svg>
