<?xml version="1.0" encoding="UTF-8" standalone="no"?>
<!DOCTYPE svg PUBLIC "-//W3C//DTD SVG 20010904//EN"
"http://www.w3.org/TR/2001/REC-SVG-20010904/DTD/svg10.dtd">
<!-- Created with Sodipodi ("http://www.sodipodi.com/") -->
<svg
   id="svg602"
   sodipodi:version="0.32"
   width="48pt"
   height="48pt"
   xml:space="preserve"
   sodipodi:docbase="/home/krosstok/.icons/Pdef/scalable/filesystems"
   sodipodi:docname="gnome-fs-directory-visiting.svg"
   inkscape:version="0.38.1"
   xmlns="http://www.w3.org/2000/svg"
   xmlns:inkscape="http://www.inkscape.org/namespaces/inkscape"
   xmlns:sodipodi="http://sodipodi.sourceforge.net/DTD/sodipodi-0.dtd"
   xmlns:xml="http://www.w3.org/XML/1998/namespace"
   xmlns:xlink="http://www.w3.org/1999/xlink"><defs
   id="defs604">
    <linearGradient
   id="linearGradient672">
      <stop
   style="stop-color:#d9dfd5;stop-opacity:1;"
   offset="0"
   id="stop673" />











      <stop
   style="stop-color:#ffffff;stop-opacity:1;"
   offset="1"
   id="stop674" />











    </linearGradient>











    <linearGradient
   id="linearGradient616">
      <stop
   style="stop-color:#b39169;stop-opacity:1.0000000;"
   offset="0.0000000"
   id="stop617" />











      <stop
   style="stop-color:#efe0cd;stop-opacity:1.0000000;"
   offset="1.0000000"
   id="stop618" />











    </linearGradient>











    <linearGradient
   xlink:href="#linearGradient616"
   id="linearGradient619"
   x1="0.41926342"
   y1="0.18983676"
   x2="0.91678953"
   y2="1.50409484"
   gradientUnits="objectBoundingBox"
   gradientTransform="scale(0.730143,1.369594)" />











    <radialGradient
   xlink:href="#linearGradient616"
   id="radialGradient620"
   cx="83.7103271"
   cy="144.164276"
   r="305.230225"
   fx="83.7103271"
   fy="144.164276"
   gradientTransform="scale(1.257427,0.795275)" />











    <linearGradient
   xlink:href="#linearGradient616"
   id="linearGradient621"
   x1="36.107239"
   y1="44.179695"
   x2="-1.1123854"
   y2="20.212824"
   gradientUnits="userSpaceOnUse"
   gradientTransform="scale(1.084598,0.922001)" />











    <radialGradient
   xlink:href="#linearGradient616"
   id="radialGradient632"
   cx="0.42763162"
   cy="0.921875"
   r="0.86579776"
   fx="0.42763162"
   fy="0.921875" />











    <radialGradient
   xlink:href="#linearGradient616"
   id="radialGradient634"
   cx="1.1638796"
   cy="0.83534139"
   r="1.3709123"
   fx="1.1638796"
   fy="0.83534139" />











    <linearGradient
   xlink:href="#linearGradient672"
   id="linearGradient676"
   x1="15.6870308"
   y1="18.9490681"
   x2="56.4882126"
   y2="55.0553169" />











    <linearGradient
   xlink:href="#linearGradient672"
   id="linearGradient740"
   x1="40.1527023"
   y1="35.1880341"
   x2="36.5803947"
   y2="18.5065861"
   gradientUnits="userSpaceOnUse" />











  </defs>

<sodipodi:namedview
   id="base"
   inkscape:zoom="2.6811132"
   inkscape:cx="24.379863"
   inkscape:cy="20.158786"
   inkscape:window-width="640"
   inkscape:window-height="499"
   inkscape:window-x="58"
   inkscape:window-y="54"
   showguides="true"
   snaptoguides="true">
    <sodipodi:guide
   orientation="vertical"
   position="-5.95611286"
   id="guide627" />











  </sodipodi:namedview>


  

  

  
  

  

  
  
  
  <path
   style="font-size:12.000000;fill:url(#linearGradient621);fill-rule:evenodd;stroke:#595959;stroke-width:1.6034091;stroke-opacity:1.0000000;"
   d="M 11.103789,14.283166 C 10.936367,15.693668 9.2361720,46.060618 9.6707600,46.838416 L 50.704436,46.838416 C 50.920108,46.423712 49.998977,16.091298 49.398933,14.291680 L 11.103789,14.283166 z "
   id="path631"
   sodipodi:nodetypes="ccccc"
   transform="matrix(1.115780,0.000000,0.000000,1.165847,-4.327850,-5.734997)" />






  <path
   style="font-size:12.000000;fill:url(#radialGradient634);fill-rule:evenodd;stroke-width:3.2500000;stroke-linejoin:round;"
   d="M 14.085713,18.941925 C 12.061705,23.246254 11.390094,48.726672 11.803366,49.488906 L 49.323098,49.488906 C 49.528117,49.082450 48.904052,20.487504 46.518519,18.643597 C 46.671580,17.215647 13.621061,18.230292 14.085713,18.941925 z "
   id="path633"
   sodipodi:nodetypes="ccccc"
   transform="matrix(1.062327,0.000000,0.000000,1.086467,-1.662095,-6.231303)" />

<path
   style="font-size:12.000000;fill:#ffffff;fill-opacity:0.46376809;fill-rule:evenodd;stroke-width:1.6034091;"
   d="M 11.103789,14.283166 C 10.936367,15.693668 9.2361720,46.060618 9.6707600,46.838416 L 50.704436,46.838416 C 50.920108,46.423712 49.998977,16.091298 49.398933,14.291680 L 11.103789,14.283166 z "
   id="path1146"
   sodipodi:nodetypes="ccccc"
   transform="matrix(1.115780,0.000000,0.000000,1.165847,-4.327850,-5.734997)" />






  <g
   id="g748"
   transform="matrix(1.047566,0.000000,0.000000,1.075989,-3.155073,-1.800035)"
   style="">
      <rect
   style="font-size:12;fill:url(#linearGradient676);fill-rule:evenodd;stroke-width:1.375;stroke:#000000;stroke-opacity:1;stroke-dasharray:none;stroke-linejoin:round;"
   id="rect738"
   width="35.3982849"
   height="24.0708351"
   x="13.4513493"
   y="14.2477322" />







      <rect
   style="font-size:12;fill:url(#linearGradient740);fill-rule:evenodd;stroke:none;stroke-width:1.275;stroke-linejoin:round;stroke-dasharray:none;"
   id="rect739"
   width="31.1504974"
   height="19.8230457"
   x="15.5752459"
   y="16.3716278" />







    </g>








  


  


  
  
  
  
    <path
   style="font-size:12.000000;fill-opacity:0.28989998;fill-rule:evenodd;stroke-width:3.2500000;stroke-linejoin:round;"
   d="M 5.0566878,42.561909 C 3.4265465,50.425559 6.9173389,51.654190 8.4224927,51.179396 L 54.375715,51.179396 C 55.640119,51.409885 61.763885,42.129059 59.192938,42.699694 C 58.003656,42.408280 4.5194626,41.173374 5.0566878,42.561909 z "
   id="path705"
   sodipodi:nodetypes="ccccc" />











    


    




    




    



    <path
   style="font-size:12.000000;fill:url(#radialGradient620);fill-rule:evenodd;stroke:#585859;stroke-width:1.8279599;stroke-dasharray:none;stroke-opacity:1.0000000;"
   d="M 5.3394611,24.045388 L 9.2938570,44.523910 L 48.908360,44.523910 L 53.777723,24.226536 L 36.468010,23.962776 C 36.090890,21.551166 34.651830,19.747336 34.274710,19.675526 C 31.065740,19.659426 27.856760,19.643316 24.647790,19.627216 C 23.775560,19.706416 22.903320,22.057278 22.031100,23.807758 L 5.3394611,24.045388 z "
   id="path606"
   sodipodi:nodetypes="ccccccccc"
   transform="matrix(1.155420,0.000000,0.000000,1.062128,-4.300983,1.069660)" />











    <path
   style="font-size:12.000000;fill:url(#linearGradient619);fill-rule:evenodd;stroke-width:4.2137990;stroke-linejoin:round;"
   d="M 3.6458332,31.694312 L 7.0009455,51.424905 L 48.470198,51.424905 L 52.518535,31.365869 L 35.735368,31.481551 C 35.365567,31.435006 34.314820,25.657246 32.831221,26.084617 C 33.473885,25.215160 23.861652,26.052315 23.553613,26.036175 C 23.175957,26.145964 22.308968,26.351195 20.356147,31.769792 L 3.6458332,31.694312 z "
   id="path615"
   sodipodi:nodetypes="ccccccccc"
   transform="matrix(0.990363,0.000000,0.000000,0.936412,1.739300,-0.584206)" />
<path
   style="font-size:12.000000;fill:#ffffff;fill-opacity:0.42753622;fill-rule:evenodd;stroke-width:1.8245745;"
   d="M 5.3394611,24.045388 L 9.2938570,44.523910 L 48.908360,44.523910 L 53.777723,24.226536 L 36.468010,23.962776 C 36.090890,21.551166 34.651830,19.747336 34.274710,19.675526 C 31.065740,19.659426 27.856760,19.643316 24.647790,19.627216 C 23.775560,19.706416 22.903320,22.057278 22.031100,23.807758 L 5.3394611,24.045388 z "
   id="path1145"
   sodipodi:nodetypes="ccccccccc"
   transform="matrix(1.155420,0.000000,0.000000,1.062128,-4.300983,1.069660)" />











  







</svg>
